<?xml version="1.0" encoding="UTF-8"?>
<svg width="12px" height="21px" viewBox="0 0 12 21" version="1.1" xmlns="http://www.w3.org/2000/svg" xmlns:xlink="http://www.w3.org/1999/xlink">
    <!-- Generator: Sketch 42 (36781) - http://www.bohemiancoding.com/sketch -->
    <title>&lt;</title>
    <desc>Created with Sketch.</desc>
    <defs></defs>
    <g id="Page-1" stroke="none" stroke-width="1" fill="none" fill-rule="evenodd">
        <g id="Events-Landing" transform="translate(-1609.000000, -544.000000)" fill="#e83928">
            <g id="//-RIGHT-NAV-W/-CALENDAR" transform="translate(1332.000000, 504.000000)">
                <g id="Calendar">
                    <g id="Prev" transform="translate(277.000000, 40.000000)">
                        <path d="M10.58,20.73 L1.07,11.16 C0.9099992,10.9999992 0.8200001,10.8600006 0.8,10.74 C0.7799999,10.5999993 0.7999997,10.4550008 0.86,10.305 C0.9200003,10.1549993 0.9999995,10.0300005 1.1,9.93 L10.58,0.33 C10.7400008,0.1699992 10.9449987,0.09 11.195,0.09 C11.4450012,0.09 11.6499992,0.1699992 11.81,0.33 C11.9500007,0.5100009 12.02,0.7199988 12.02,0.96 C12.02,1.2000012 11.9500007,1.4099991 11.81,1.59 L2.87,10.56 L11.81,19.56 C11.9500007,19.7200008 12.02,19.9149989 12.02,20.145 C12.02,20.3750012 11.9500007,20.5749992 11.81,20.745 C11.6699993,20.9150009 11.4750012,21 11.225,21 C10.9749987,21 10.7600009,20.9100009 10.58,20.73 Z" id="&lt;"></path>
                    </g>
                </g>
            </g>
        </g>
    </g>
</svg>
