<?xml version="1.0" encoding="UTF-8"?>
<svg width="14px" height="14px" viewBox="0 0 14 14" version="1.1" xmlns="http://www.w3.org/2000/svg" xmlns:xlink="http://www.w3.org/1999/xlink">
    <!-- Generator: Sketch 41.2 (35397) - http://www.bohemiancoding.com/sketch -->
    <title>Close Icon</title>
    <desc>Created with Sketch.</desc>
    <defs></defs>
    <g id="Symbols" stroke="none" stroke-width="1" fill="none" fill-rule="evenodd">
        <g id="Mobile-Menu-Close" transform="translate(0.000000, -5.000000)" fill="#EF0030">
            <g id="Close-Icon">
                <g transform="translate(0.000000, 5.000000)">
                    <polygon points="14 1.4 12.6 0 7 5.6 1.4 0 0 1.4 5.6 7 0 12.6 1.4 14 7 8.4 12.6 14 14 12.6 8.4 7"></polygon>
                </g>
            </g>
        </g>
    </g>
</svg>
