<?xml version="1.0" encoding="UTF-8"?>
<svg width="18px" height="18px" viewBox="0 0 18 18" version="1.1" xmlns="http://www.w3.org/2000/svg" xmlns:xlink="http://www.w3.org/1999/xlink">
    <!-- Generator: Sketch 41.2 (35397) - http://www.bohemiancoding.com/sketch -->
    <title>Shape</title>
    <desc>Created with Sketch.</desc>
    <defs></defs>
    <g id="Symbols" stroke="none" stroke-width="1" fill="none" fill-rule="evenodd">
        <g id="Contact-Info" transform="translate(0.000000, -250.000000)" fill="#bc0026">
            <g id="Shape">
                <path d="M3.6,257.8 C5,260.6 7.4,262.9 10.2,264.4 L12.4,262.2 C12.7,261.9 13.1,261.8 13.4,262 C14.5,262.4 15.7,262.6 17,262.6 C17.6,262.6 18,263 18,263.6 L18,267 C18,267.6 17.6,268 17,268 C7.6,268 0,260.4 0,251 C0,250.4 0.4,250 1,250 L4.5,250 C5.1,250 5.5,250.4 5.5,251 C5.5,252.2 5.7,253.4 6.1,254.6 C6.2,254.9 6.1,255.3 5.9,255.6 L3.6,257.8 L3.6,257.8 Z"></path>
            </g>
        </g>
    </g>
</svg>
