<?xml version="1.0" standalone="no"?>
<!DOCTYPE svg PUBLIC "-//W3C//DTD SVG 1.1//EN" "http://www.w3.org/Graphics/SVG/1.1/DTD/svg11.dtd" >
<svg xmlns="http://www.w3.org/2000/svg" xmlns:xlink="http://www.w3.org/1999/xlink" version="1.1">
<metadata>
Created by FontForge 20160407 at Thu Aug 25 17:23:48 2016
 By Jimmy Warting
Copyright  2010 by Ryoichi Tsunekawa. All rights reserved.
</metadata>
<defs>
<font id="BebasNeueRegular" horiz-adv-x="792" >
  <font-face 
    font-family="Bebas Neue Regular"
    font-weight="400"
    font-stretch="normal"
    units-per-em="2048"
    panose-1="0 0 5 0 0 0 0 0 0 0"
    ascent="1536"
    descent="-512"
    x-height="1434"
    cap-height="1434"
    bbox="0 -305 1679 1817"
    underline-thickness="102"
    underline-position="-225"
    unicode-range="U+000D-25FC"
  />
<missing-glyph horiz-adv-x="748" 
d="M68 0v1365h544v-1365h-544zM136 68h408v1229h-408v-1229z" />
    <glyph glyph-name=".notdef" horiz-adv-x="748" 
d="M68 0v1365h544v-1365h-544zM136 68h408v1229h-408v-1229z" />
    <glyph glyph-name="glyph1" horiz-adv-x="2048" 
 />
    <glyph glyph-name="glyph1" horiz-adv-x="2048" 
 />
    <glyph glyph-name="uni000D" unicode="&#xd;" horiz-adv-x="2048" 
 />
    <glyph glyph-name="space" unicode=" " horiz-adv-x="317" 
 />
    <glyph glyph-name="exclam" unicode="!" horiz-adv-x="323" 
d="M82 760v674h160v-674l-21 -443h-119zM84 0v199h154v-199h-154z" />
    <glyph glyph-name="quotedbl" unicode="&#x22;" horiz-adv-x="542" 
d="M82 1434h154l-23 -387h-111zM307 1434h154l-23 -387h-110z" />
    <glyph glyph-name="numbersign" unicode="#" horiz-adv-x="843" 
d="M47 432l12 115h117l45 420h-121l13 114h118l37 353h131l-37 -353h189l37 353h131l-37 -353h115l-13 -114h-114l-43 -420h114l-12 -115h-115l-45 -432h-131l45 432h-186l-47 -432h-131l47 432h-119zM307 547h189l43 420h-187z" />
    <glyph glyph-name="dollar" unicode="$" 
d="M74 358v88h149v-98q0 -203 168 -203t168 203q0 64 -26.5 118.5t-68.5 95t-93.5 79t-102.5 80t-93 89t-68.5 115.5t-26.5 150q0 151 62.5 241.5t189.5 110.5v115h131v-115q127 -18 190.5 -110.5t63.5 -241.5v-39h-150v49q0 205 -166 205q-163 0 -163 -205q0 -65 26.5 -120
t69 -95t93.5 -78.5t102.5 -80t94 -88.5t69 -115t26.5 -150q0 -149 -64.5 -242.5t-191.5 -111.5v-108h-131v108q-130 18 -194 110.5t-64 243.5z" />
    <glyph glyph-name="percent" unicode="%" horiz-adv-x="1261" 
d="M74 758v452q0 107 52 169.5t153 62.5t152.5 -62.5t51.5 -169.5v-452q0 -108 -51.5 -170t-152.5 -62t-153 62t-52 170zM176 750q0 -129 103 -129q102 0 102 129v467q0 131 -102 131q-103 0 -103 -131v-467zM295 0l565 1434h96l-565 -1434h-96zM778 225v451q0 106 52 167.5
t153 61.5q102 0 153.5 -61t51.5 -168v-451q0 -108 -51 -169.5t-154 -61.5q-101 0 -153 61.5t-52 169.5zM881 217q0 -131 102 -131t102 131v465q0 129 -102 129t-102 -129v-465z" />
    <glyph glyph-name="ampersand" unicode="&#x26;" horiz-adv-x="835" 
d="M84 315v140q0 110 42 188t128 111q-85 30 -127.5 106t-42.5 187v32q0 172 85 263.5t253 91.5h231v-146h-227q-184 0 -184 -203v-71q0 -91 43.5 -141.5t122.5 -53.5h161v160h158v-160h70v-143h-70v-494q0 -64 5.5 -104t25.5 -78h-162q-25 54 -27 125q-62 -139 -225 -139
q-130 0 -195 86.5t-65 242.5zM242 328q0 -197 166 -197q71 0 114.5 41.5t46.5 122.5v381h-149q-178 -6 -178 -217v-131z" />
    <glyph glyph-name="quotesingle" unicode="'" horiz-adv-x="309" 
d="M78 1434h153l-22 -387h-111z" />
    <glyph glyph-name="parenleft" unicode="(" horiz-adv-x="493" 
d="M92 315v803q0 165 67 240.5t228 75.5h57v-131h-47q-81 0 -114 -44t-33 -141v-803q0 -97 32.5 -140.5t114.5 -43.5h47v-131h-57q-161 0 -228 75t-67 240z" />
    <glyph glyph-name="parenright" unicode=")" horiz-adv-x="493" 
d="M49 0v131h47q82 0 115 43.5t33 140.5v803q0 96 -33.5 140.5t-114.5 44.5h-47v131h57q161 0 228 -75.5t67 -240.5v-803q0 -165 -67 -240t-228 -75h-57z" />
    <glyph glyph-name="asterisk" unicode="*" horiz-adv-x="808" 
d="M37 1110l39 125l299 -131l-37 323h131l-35 -323l299 129l39 -125l-319 -64l217 -239l-105 -78l-162 285l-159 -285l-105 78l215 239z" />
    <glyph glyph-name="plus" unicode="+" horiz-adv-x="802" 
d="M61 659v115h283v285h115v-285h282v-115h-282v-288h-115v288h-283z" />
    <glyph glyph-name="comma" unicode="," horiz-adv-x="327" 
d="M92 0v199h154v-185l-80 -194h-66l52 180h-60z" />
    <glyph glyph-name="hyphen" unicode="-" horiz-adv-x="542" 
d="M76 645v143h391v-143h-391z" />
    <glyph glyph-name="period" unicode="." horiz-adv-x="317" 
d="M82 0v199h154v-199h-154z" />
    <glyph glyph-name="slash" unicode="/" horiz-adv-x="770" 
d="M33 0l565 1434h139l-565 -1434h-139z" />
    <glyph glyph-name="zero" unicode="0" horiz-adv-x="796" 
d="M70 348v739q0 169 83 265t244 96q162 0 246 -96t84 -265v-739q0 -169 -84 -265.5t-246 -96.5q-160 0 -243.5 96.5t-83.5 265.5zM227 338q0 -99 42.5 -153t127.5 -54q86 0 128 54t42 153v758q0 209 -170 209q-85 0 -127.5 -54.5t-42.5 -154.5v-758z" />
    <glyph glyph-name="one" unicode="1" horiz-adv-x="692" 
d="M176 1112v131q56 2 98 17.5t70 43.5t45 58t33 72h110v-1434h-157v1174q-90 -56 -199 -62z" />
    <glyph glyph-name="two" unicode="2" 
d="M82 0v123q0 94 26.5 177t69.5 145.5t94.5 120.5t103.5 114t95 113.5t69.5 131t26.5 154.5q0 113 -40.5 169.5t-127.5 56.5q-85 0 -126.5 -56t-41.5 -155v-127h-149v116q0 170 80 267.5t241 97.5q162 0 243 -96.5t81 -266.5q0 -88 -27 -169t-69.5 -144.5t-94.5 -124
t-103.5 -117t-94.5 -111.5t-70.5 -119.5t-27.5 -131.5v-23h471v-145h-629z" />
    <glyph glyph-name="three" unicode="3" 
d="M74 348v98h149v-108q0 -99 42 -153t126 -54q168 0 168 221v111q0 105 -44.5 157.5t-135.5 55.5h-86v143h94q81 3 126.5 54t45.5 143v65q0 224 -168 224q-84 0 -126 -55t-42 -154v-74h-149v65q0 169 80.5 265t240.5 96q161 0 242.5 -96t81.5 -265v-36q0 -111 -44 -187
t-130 -108q174 -65 174 -297v-111q0 -170 -81.5 -266t-242.5 -96q-160 0 -240.5 96t-80.5 266z" />
    <glyph glyph-name="four" unicode="4" horiz-adv-x="819" 
d="M45 289v145l444 1000h175v-1000h114v-145h-114v-289h-156v289h-463zM193 434h315v701z" />
    <glyph glyph-name="five" unicode="5" 
d="M76 348v96h149v-106q0 -99 42 -153t126 -54t126 54t42 153v278q0 99 -42 153t-126 54q-141 0 -162 -153v-33h-149l39 797h565v-144h-422l-22 -440q69 119 213 119q134 0 200 -90t66 -250v-281q0 -169 -82 -265.5t-242 -96.5t-240.5 96t-80.5 266z" />
    <glyph glyph-name="six" unicode="6" horiz-adv-x="796" 
d="M72 348v731q0 176 81.5 272.5t247.5 96.5q162 0 243 -94.5t81 -263.5v-27h-150v37q0 205 -169 205q-90 0 -132.5 -57.5t-42.5 -174.5v-321q61 153 232 153q134 0 200 -89.5t66 -250.5v-217q0 -169 -83.5 -265.5t-244.5 -96.5q-162 0 -245.5 96.5t-83.5 265.5zM231 338
q0 -99 42 -153t128 -54q85 0 127.5 54t42.5 153v215q0 99 -42.5 153t-127.5 54q-86 0 -128 -54t-42 -153v-215z" />
    <glyph glyph-name="seven" unicode="7" 
d="M72 1290v144h649v-140l-369 -1294h-159l366 1290h-487z" />
    <glyph glyph-name="eight" unicode="8" horiz-adv-x="802" 
d="M63 344v107q0 236 166 303q-166 64 -166 295v45q0 168 87 261t251 93t251 -93t87 -261v-45q0 -233 -164 -295q164 -65 164 -303v-107q0 -169 -86.5 -263.5t-251.5 -94.5t-251.5 94.5t-86.5 263.5zM221 348q0 -217 180 -217q178 0 181 217v121q0 207 -181 207
q-180 0 -180 -207v-121zM221 1020q0 -201 180 -201q181 0 181 201v70q0 108 -47 161.5t-134 53.5t-133.5 -53.5t-46.5 -161.5v-70z" />
    <glyph glyph-name="nine" unicode="9" horiz-adv-x="796" 
d="M68 868v219q0 169 82.5 265t244.5 96t246 -96t84 -265v-731q0 -176 -82.5 -273t-249.5 -97q-160 0 -241.5 95.5t-81.5 264.5v27h149v-37q0 -99 42.5 -152t127.5 -53q91 0 133.5 56.5t42.5 172.5v322q-60 -152 -231 -152q-134 0 -200 89t-66 249zM225 881q0 -99 42.5 -153
t127.5 -54q86 0 128 54t42 153v215q0 207 -170 207q-85 0 -127.5 -53.5t-42.5 -153.5v-215z" />
    <glyph glyph-name="colon" unicode=":" horiz-adv-x="317" 
d="M82 0v199h154v-199h-154zM82 780v199h154v-199h-154z" />
    <glyph glyph-name="semicolon" unicode=";" horiz-adv-x="327" 
d="M92 0v199h154v-185l-80 -194h-66l52 180h-60zM92 780v199h154v-199h-154z" />
    <glyph glyph-name="less" unicode="&#x3c;" horiz-adv-x="784" 
d="M68 659v115l634 260v-116l-485 -201l485 -201v-117z" />
    <glyph glyph-name="equal" unicode="=" horiz-adv-x="716" 
d="M76 528v115h565v-115h-565zM76 819v115h565v-115h-565z" />
    <glyph glyph-name="greater" unicode="&#x3e;" horiz-adv-x="784" 
d="M82 399v117l485 201l-485 201v116l635 -260v-115z" />
    <glyph glyph-name="question" unicode="?" horiz-adv-x="739" 
d="M55 967v116q0 169 79.5 267t238.5 98q161 0 240 -96.5t79 -266.5q0 -96 -29.5 -176.5t-71 -138t-83 -111t-71 -120.5t-29.5 -142q0 -36 10 -78h-144q-10 42 -10 82q0 86 27.5 158.5t67 126.5t79 109t67 131.5t27.5 167.5q0 211 -163 211q-164 0 -164 -211v-127h-150z
M268 0v199h152v-199h-152z" />
    <glyph glyph-name="at" unicode="@" horiz-adv-x="1411" 
d="M59 590q0 148 28 282t87.5 250.5t145.5 201t209.5 133t271.5 48.5q121 0 216 -29t159 -81t105.5 -126.5t60 -162t18.5 -191.5q0 -147 -32 -270t-84.5 -202.5t-119.5 -123t-139 -43.5q-74 0 -116 36.5t-46 103.5q-65 -143 -211 -140q-111 1 -156.5 85.5t-31.5 228.5
l22 205q14 143 78.5 222.5t175.5 76.5q137 0 177 -136l14 127h139l-61 -587q-5 -39 9 -63.5t50 -24.5q56 0 99 49t66 127t34 161t10 164q0 222 -108.5 345.5t-331.5 123.5q-121 0 -219.5 -39t-169 -109.5t-118 -170.5t-70.5 -220t-23 -259q0 -272 128.5 -420t389.5 -148
q237 0 403 129l-12 -141q-161 -111 -399 -111q-166 0 -291 49.5t-202.5 142t-116 219.5t-38.5 288zM565 596q-9 -83 19.5 -133t97.5 -51t109 47.5t49 134.5l20 197q8 74 -22.5 118.5t-96.5 44.5q-69 1 -108.5 -44t-48.5 -130z" />
    <glyph glyph-name="A" unicode="A" horiz-adv-x="864" 
d="M41 0l274 1434h232l274 -1434h-159l-56 289h-362l-56 -289h-147zM264 426h320l-162 827z" />
    <glyph glyph-name="B" unicode="B" horiz-adv-x="802" 
d="M82 0v1434h321q164 0 238 -78.5t74 -239.5v-67q0 -118 -38.5 -187.5t-129.5 -97.5q192 -54 192 -307v-121q0 -164 -81 -250t-246 -86h-330zM242 145h170q88 0 129 47.5t41 147.5v127q0 117 -47.5 165t-153.5 48h-139v-535zM242 825h123q100 0 146 41.5t46 149.5v84
q0 97 -36.5 142.5t-121.5 45.5h-157v-463z" />
    <glyph glyph-name="C" unicode="C" horiz-adv-x="778" 
d="M70 346v741q0 168 80.5 264.5t240.5 96.5q161 0 242.5 -96.5t81.5 -264.5v-129h-152v138q0 207 -168 207q-84 0 -126 -54t-42 -153v-758q0 -99 42 -153t126 -54q168 0 168 207v186h152v-178q0 -168 -81.5 -264t-242.5 -96q-160 0 -240.5 96t-80.5 264z" />
    <glyph glyph-name="D" unicode="D" horiz-adv-x="811" 
d="M82 0v1434h336q163 0 244 -93.5t81 -263.5v-723q0 -169 -81 -261.5t-244 -92.5h-336zM242 145h174q170 0 170 203v737q0 203 -172 203h-172v-1143z" />
    <glyph glyph-name="E" unicode="E" horiz-adv-x="737" 
d="M82 0v1434h590v-146h-430v-489h350v-144h-350v-510h430v-145h-590z" />
    <glyph glyph-name="F" unicode="F" horiz-adv-x="696" 
d="M82 0v1434h569v-146h-409v-522h329v-145h-329v-621h-160z" />
    <glyph glyph-name="G" unicode="G" horiz-adv-x="784" 
d="M70 346v741q0 168 80.5 264.5t240.5 96.5q161 0 242.5 -96.5t81.5 -264.5v-122h-152v131q0 207 -168 207q-84 0 -126 -54t-42 -153v-758q0 -99 42 -153t126 -54q168 0 168 207v287h-147v143h299v-422q0 -168 -81.5 -264t-242.5 -96q-160 0 -240.5 96t-80.5 264z" />
    <glyph glyph-name="H" unicode="H" horiz-adv-x="835" 
d="M82 0v1434h160v-646h352v646h160v-1434h-160v645h-352v-645h-160z" />
    <glyph glyph-name="I" unicode="I" horiz-adv-x="323" 
d="M82 0v1434h160v-1434h-160z" />
    <glyph glyph-name="J" unicode="J" horiz-adv-x="522" 
d="M41 0v145q27 -2 80 -2q83 5 125.5 51t42.5 150v1090h157v-1080q0 -349 -305 -356q-82 0 -100 2z" />
    <glyph glyph-name="K" unicode="K" horiz-adv-x="837" 
d="M82 0v1434h160v-693l381 693h161l-362 -654l375 -780h-164l-307 623l-84 -142v-481h-160z" />
    <glyph glyph-name="L" unicode="L" horiz-adv-x="690" 
d="M82 0v1434h160v-1289h409v-145h-569z" />
    <glyph glyph-name="M" unicode="M" horiz-adv-x="1071" 
d="M80 0v1434h223l236 -1145l227 1145h223v-1434h-151v1153l-228 -1151h-153l-238 1141v-1143h-139z" />
    <glyph glyph-name="N" unicode="N" horiz-adv-x="837" 
d="M80 0v1434h203l331 -1037v1037h142v-1434h-166l-367 1159v-1159h-143z" />
    <glyph glyph-name="O" unicode="O" horiz-adv-x="796" 
d="M70 346v741q0 169 83 265t244 96q162 0 246 -96t84 -265v-741q0 -167 -84 -263.5t-246 -96.5q-160 0 -243.5 96.5t-83.5 263.5zM227 338q0 -100 42.5 -153.5t127.5 -53.5q170 0 170 207v758q0 99 -42 153t-128 54q-85 0 -127.5 -54t-42.5 -153v-758z" />
    <glyph glyph-name="P" unicode="P" horiz-adv-x="765" 
d="M82 0v1434h313q164 0 243 -91.5t79 -259.5v-172q0 -346 -334 -346h-141v-565h-160zM242 709h141q91 0 133.5 45.5t42.5 146.5v191q0 100 -39 148t-125 48h-153v-579z" />
    <glyph glyph-name="Q" unicode="Q" horiz-adv-x="823" 
d="M70 346v741q0 169 83 265t244 96q162 0 246 -96t84 -265v-741q0 -138 -55 -223q12 -25 32.5 -35t55.5 -10h20v-141h-26q-132 0 -183 92q-72 -43 -174 -43q-160 0 -243.5 96.5t-83.5 263.5zM227 338q0 -100 42.5 -153.5t127.5 -53.5q170 0 170 207v758q0 99 -42 153
t-128 54q-85 0 -127.5 -54t-42.5 -153v-758z" />
    <glyph glyph-name="R" unicode="R" horiz-adv-x="806" 
d="M82 0v1434h319q166 0 243 -82.5t77 -245.5v-117q0 -239 -178 -295q95 -28 137.5 -103.5t42.5 -195.5v-223q0 -119 29 -172h-162q-27 62 -27 174v225q0 117 -52 165t-157 48h-112v-612h-160zM242 758h118q102 0 152.5 42.5t50.5 153.5v138q0 99 -39.5 147.5t-126.5 48.5
h-155v-530z" />
    <glyph glyph-name="S" unicode="S" horiz-adv-x="761" 
d="M59 344v82h150v-90q0 -205 168 -205t168 205q0 64 -26.5 120t-68.5 99t-93.5 84.5t-102.5 86t-93 94t-68.5 119t-26.5 151.5q0 170 79.5 264t237.5 94q159 0 239 -95t80 -263v-39h-151v47q0 205 -164 205t-164 -203q0 -65 26.5 -121.5t69 -99.5t94 -84.5t103 -86t94 -94
t69 -119t26.5 -151.5q0 -167 -82 -262.5t-242 -95.5t-241 95t-81 263z" />
    <glyph glyph-name="T" unicode="T" horiz-adv-x="743" 
d="M27 1288v146h688v-146h-264v-1288h-160v1288h-264z" />
    <glyph glyph-name="U" unicode="U" 
d="M76 346v1088h157v-1096q0 -207 168 -207q166 0 166 207v1096h150v-1088q0 -169 -80.5 -265.5t-241.5 -96.5q-159 0 -239 96.5t-80 265.5z" />
    <glyph glyph-name="V" unicode="V" horiz-adv-x="856" 
d="M41 1434h162l233 -1248l232 1248h147l-268 -1434h-236z" />
    <glyph glyph-name="W" unicode="W" horiz-adv-x="1193" 
d="M47 1434h156l168 -1221l159 1219h158l158 -1221l162 1223h139l-195 -1434h-211l-137 973l-141 -973h-219z" />
    <glyph glyph-name="X" unicode="X" horiz-adv-x="890" 
d="M47 0l289 739l-270 695h165l222 -574l223 574h149l-268 -695l287 -739h-168l-238 618l-239 -618h-152z" />
    <glyph glyph-name="Y" unicode="Y" horiz-adv-x="831" 
d="M33 1434h166l223 -705l225 705h152l-305 -920v-514h-158v514z" />
    <glyph glyph-name="Z" unicode="Z" horiz-adv-x="776" 
d="M59 0v143l492 1145h-469v146h633v-144l-494 -1145h490v-145h-652z" />
    <glyph glyph-name="bracketleft" unicode="[" horiz-adv-x="495" 
d="M92 0v1434h346v-131h-188v-1172h188v-131h-346z" />
    <glyph glyph-name="backslash" unicode="\" horiz-adv-x="770" 
d="M33 1434h139l565 -1434h-139z" />
    <glyph glyph-name="bracketright" unicode="]" horiz-adv-x="495" 
d="M57 0v131h187v1172h-187v131h346v-1434h-346z" />
    <glyph glyph-name="asciicircum" unicode="^" horiz-adv-x="825" 
d="M55 799l299 635h117l299 -635h-129l-229 489l-228 -489h-129z" />
    <glyph glyph-name="underscore" unicode="_" horiz-adv-x="1038" 
d="M27 -20h977v-117h-977v117z" />
    <glyph glyph-name="grave" unicode="`" horiz-adv-x="456" 
d="M88 1737h166l141 -211h-116z" />
    <glyph glyph-name="a" unicode="a" horiz-adv-x="864" 
d="M41 0l274 1434h232l274 -1434h-159l-56 289h-362l-56 -289h-147zM264 426h320l-162 827z" />
    <glyph glyph-name="b" unicode="b" horiz-adv-x="802" 
d="M82 0v1434h321q164 0 238 -78.5t74 -239.5v-67q0 -118 -38.5 -187.5t-129.5 -97.5q192 -54 192 -307v-121q0 -164 -81 -250t-246 -86h-330zM242 145h170q88 0 129 47.5t41 147.5v127q0 117 -47.5 165t-153.5 48h-139v-535zM242 825h123q100 0 146 41.5t46 149.5v84
q0 97 -36.5 142.5t-121.5 45.5h-157v-463z" />
    <glyph glyph-name="c" unicode="c" horiz-adv-x="778" 
d="M70 346v741q0 168 80.5 264.5t240.5 96.5q161 0 242.5 -96.5t81.5 -264.5v-129h-152v138q0 207 -168 207q-84 0 -126 -54t-42 -153v-758q0 -99 42 -153t126 -54q168 0 168 207v186h152v-178q0 -168 -81.5 -264t-242.5 -96q-160 0 -240.5 96t-80.5 264z" />
    <glyph glyph-name="d" unicode="d" horiz-adv-x="811" 
d="M82 0v1434h336q163 0 244 -93.5t81 -263.5v-723q0 -169 -81 -261.5t-244 -92.5h-336zM242 145h174q170 0 170 203v737q0 203 -172 203h-172v-1143z" />
    <glyph glyph-name="e" unicode="e" horiz-adv-x="737" 
d="M82 0v1434h590v-146h-430v-489h350v-144h-350v-510h430v-145h-590z" />
    <glyph glyph-name="f" unicode="f" horiz-adv-x="696" 
d="M82 0v1434h569v-146h-409v-522h329v-145h-329v-621h-160z" />
    <glyph glyph-name="g" unicode="g" horiz-adv-x="784" 
d="M70 346v741q0 168 80.5 264.5t240.5 96.5q161 0 242.5 -96.5t81.5 -264.5v-122h-152v131q0 207 -168 207q-84 0 -126 -54t-42 -153v-758q0 -99 42 -153t126 -54q168 0 168 207v287h-147v143h299v-422q0 -168 -81.5 -264t-242.5 -96q-160 0 -240.5 96t-80.5 264z" />
    <glyph glyph-name="h" unicode="h" horiz-adv-x="835" 
d="M82 0v1434h160v-646h352v646h160v-1434h-160v645h-352v-645h-160z" />
    <glyph glyph-name="i" unicode="i" horiz-adv-x="323" 
d="M82 0v1434h160v-1434h-160z" />
    <glyph glyph-name="j" unicode="j" horiz-adv-x="522" 
d="M41 0v145q27 -2 80 -2q83 5 125.5 51t42.5 150v1090h157v-1080q0 -349 -305 -356q-82 0 -100 2z" />
    <glyph glyph-name="k" unicode="k" horiz-adv-x="837" 
d="M82 0v1434h160v-693l381 693h161l-362 -654l375 -780h-164l-307 623l-84 -142v-481h-160z" />
    <glyph glyph-name="l" unicode="l" horiz-adv-x="690" 
d="M82 0v1434h160v-1289h409v-145h-569z" />
    <glyph glyph-name="m" unicode="m" horiz-adv-x="1071" 
d="M80 0v1434h223l236 -1145l227 1145h223v-1434h-151v1153l-228 -1151h-153l-238 1141v-1143h-139z" />
    <glyph glyph-name="n" unicode="n" horiz-adv-x="837" 
d="M80 0v1434h203l331 -1037v1037h142v-1434h-166l-367 1159v-1159h-143z" />
    <glyph glyph-name="o" unicode="o" horiz-adv-x="796" 
d="M70 346v741q0 169 83 265t244 96q162 0 246 -96t84 -265v-741q0 -167 -84 -263.5t-246 -96.5q-160 0 -243.5 96.5t-83.5 263.5zM227 338q0 -100 42.5 -153.5t127.5 -53.5q170 0 170 207v758q0 99 -42 153t-128 54q-85 0 -127.5 -54t-42.5 -153v-758z" />
    <glyph glyph-name="p" unicode="p" horiz-adv-x="759" 
d="M82 0v1434h313q164 0 243 -91.5t79 -259.5v-172q0 -346 -334 -346h-141v-565h-160zM242 709h141q91 0 133.5 45.5t42.5 146.5v191q0 100 -39 148t-125 48h-153v-579z" />
    <glyph glyph-name="q" unicode="q" horiz-adv-x="802" 
d="M70 346v741q0 169 83 265t244 96q162 0 246 -96t84 -265v-741q0 -138 -55 -223q12 -25 32.5 -35t55.5 -10h20v-141h-26q-132 0 -183 92q-72 -43 -174 -43q-160 0 -243.5 96.5t-83.5 263.5zM227 338q0 -100 42.5 -153.5t127.5 -53.5q170 0 170 207v758q0 99 -42 153
t-128 54q-85 0 -127.5 -54t-42.5 -153v-758z" />
    <glyph glyph-name="r" unicode="r" horiz-adv-x="806" 
d="M82 0v1434h319q166 0 243 -82.5t77 -245.5v-117q0 -239 -178 -295q95 -28 137.5 -103.5t42.5 -195.5v-223q0 -119 29 -172h-162q-27 62 -27 174v225q0 117 -52 165t-157 48h-112v-612h-160zM242 758h118q102 0 152.5 42.5t50.5 153.5v138q0 99 -39.5 147.5t-126.5 48.5
h-155v-530z" />
    <glyph glyph-name="s" unicode="s" horiz-adv-x="761" 
d="M59 344v82h150v-90q0 -205 168 -205t168 205q0 64 -26.5 120t-68.5 99t-93.5 84.5t-102.5 86t-93 94t-68.5 119t-26.5 151.5q0 170 79.5 264t237.5 94q159 0 239 -95t80 -263v-39h-151v47q0 205 -164 205t-164 -203q0 -65 26.5 -121.5t69 -99.5t94 -84.5t103 -86t94 -94
t69 -119t26.5 -151.5q0 -167 -82 -262.5t-242 -95.5t-241 95t-81 263z" />
    <glyph glyph-name="t" unicode="t" horiz-adv-x="737" 
d="M25 1288v146h686v-146h-265v-1288h-157v1288h-264z" />
    <glyph glyph-name="u" unicode="u" 
d="M76 346v1088h157v-1096q0 -207 168 -207q166 0 166 207v1096h150v-1088q0 -169 -80.5 -265.5t-241.5 -96.5q-159 0 -239 96.5t-80 265.5z" />
    <glyph glyph-name="v" unicode="v" horiz-adv-x="856" 
d="M41 1434h162l233 -1248l232 1248h147l-268 -1434h-236z" />
    <glyph glyph-name="w" unicode="w" horiz-adv-x="1193" 
d="M47 1434h156l168 -1221l159 1219h158l158 -1221l162 1223h139l-195 -1434h-211l-137 973l-141 -973h-219z" />
    <glyph glyph-name="x" unicode="x" horiz-adv-x="890" 
d="M47 0l289 739l-270 695h165l222 -574l223 574h149l-268 -695l287 -739h-168l-238 618l-239 -618h-152z" />
    <glyph glyph-name="y" unicode="y" horiz-adv-x="831" 
d="M33 1434h166l223 -705l225 705h152l-305 -920v-514h-158v514z" />
    <glyph glyph-name="z" unicode="z" horiz-adv-x="776" 
d="M59 0v143l492 1145h-469v146h633v-144l-494 -1145h490v-145h-652z" />
    <glyph glyph-name="braceleft" unicode="{" horiz-adv-x="526" 
d="M41 649v135q71 6 94.5 38.5t28.5 113.5l14 278q16 220 205 220h94v-131h-39q-62 0 -86.5 -36.5t-29.5 -121.5l-13 -232q-2 -36 -7.5 -63.5t-19 -55t-40.5 -47.5t-66 -30q74 -20 101.5 -70t31.5 -127l13 -231q5 -85 29.5 -121.5t86.5 -36.5h39v-131h-94q-189 0 -205 219
l-14 279q-5 80 -28.5 112.5t-94.5 38.5z" />
    <glyph glyph-name="bar" unicode="|" horiz-adv-x="763" 
d="M324 -90v1614h131v-1614h-131z" />
    <glyph glyph-name="braceright" unicode="}" horiz-adv-x="526" 
d="M49 0v131h39q62 0 87 36.5t30 121.5l12 231q2 37 7.5 64t18.5 55t40 48t67 30q-32 8 -56 23.5t-38 33t-22.5 42t-12 46.5t-4.5 51l-12 232q-5 85 -30 121.5t-87 36.5h-39v131h94q94 0 145.5 -57t57.5 -163l16 -278q5 -81 27.5 -113.5t93.5 -38.5v-135q-71 -6 -93.5 -38
t-27.5 -113l-16 -279q-6 -106 -57.5 -162.5t-145.5 -56.5h-94z" />
    <glyph glyph-name="asciitilde" unicode="~" horiz-adv-x="811" 
d="M37 678q59 88 109.5 125t109.5 37q39 1 84 -19t78.5 -43.5t73.5 -43.5t71 -19q36 0 63.5 25t69.5 87l78 -77q-56 -86 -104.5 -121t-106.5 -37q-39 -1 -83 19t-77.5 44t-74 44t-72.5 20q-39 0 -68.5 -25.5t-72.5 -89.5z" />
    <glyph glyph-name="uni00A0" unicode="&#xa0;" horiz-adv-x="317" 
 />
    <glyph glyph-name="cent" unicode="&#xa2;" 
d="M76 436v561q0 150 63.5 243.5t190.5 111.5v102h131v-100q130 -17 195 -108.5t65 -241.5v-82h-150v90q0 202 -168 202q-167 0 -167 -206v-582q0 -205 167 -205q168 0 168 205v137h150v-127q0 -152 -65 -244.5t-195 -109.5v-102h-131v102q-127 18 -190.5 111.5t-63.5 242.5
z" />
    <glyph glyph-name="sterling" unicode="&#xa3;" horiz-adv-x="800" 
d="M68 0v139q90 36 147.5 121.5t50.5 200.5h-170v125h150q-15 48 -45 110t-52.5 107.5t-40.5 120.5t-18 161q0 170 79.5 266.5t240.5 96.5q159 0 238 -98t79 -267v-114h-152v123q0 211 -161 211q-164 0 -164 -209q0 -86 17.5 -162t39.5 -122t50 -109.5t42 -114.5h275v-125
h-264q2 -85 -31.5 -160t-110.5 -156h453v-145h-653z" />
    <glyph glyph-name="yen" unicode="&#xa5;" horiz-adv-x="847" 
d="M37 1434h166l227 -701l229 701h152l-297 -875h195v-84h-205v-121h205v-82h-205v-272h-160v272h-205v82h205v121h-205v84h193z" />
    <glyph glyph-name="dieresis" unicode="&#xa8;" horiz-adv-x="448" 
d="M72 1518v184h139v-184h-139zM238 1518v184h139v-184h-139z" />
    <glyph glyph-name="copyright" unicode="&#xa9;" horiz-adv-x="1519" 
d="M55 717q0 206 91 372t252.5 259.5t361.5 93.5q150 0 281 -55t223.5 -150.5t146 -230.5t53.5 -289t-53.5 -289t-146 -230.5t-223.5 -150.5t-281 -55q-200 0 -361.5 93.5t-252.5 259.5t-91 372zM160 717q0 -176 77.5 -318.5t215 -223.5t307.5 -81t307.5 81t215 223.5
t77.5 318.5t-77.5 318t-215 223t-307.5 81t-307.5 -81t-215 -223t-77.5 -318zM528 518v395q0 119 56 186.5t168 67.5q111 0 167 -67.5t56 -186.5v-61h-107v70q0 141 -114 141q-57 0 -86 -37t-29 -104v-410q0 -67 29 -104t86 -37q114 0 114 141v100h107v-94q0 -118 -56 -185
t-167 -67q-112 0 -168 67t-56 185z" />
    <glyph glyph-name="guillemotleft" unicode="&#xab;" horiz-adv-x="655" 
d="M49 719l129 514h146l-129 -514l129 -535h-146zM332 719l131 514h143l-129 -514l129 -535h-143z" />
    <glyph glyph-name="uni00AD" unicode="&#xad;" horiz-adv-x="542" 
d="M76 645v143h391v-143h-391z" />
    <glyph glyph-name="registered" unicode="&#xae;" horiz-adv-x="1519" 
d="M55 717q0 206 91 372t252.5 259.5t361.5 93.5q150 0 281 -55t223.5 -150.5t146 -230.5t53.5 -289t-53.5 -289t-146 -230.5t-223.5 -150.5t-281 -55q-200 0 -361.5 93.5t-252.5 259.5t-91 372zM160 717q0 -176 77.5 -318.5t215 -223.5t307.5 -81t307.5 81t215 223.5
t77.5 318.5t-77.5 318t-215 223t-307.5 81t-307.5 -81t-215 -223t-77.5 -318zM547 279v876h223q115 0 169 -57.5t54 -171.5v-21q0 -163 -119 -207q119 -40 119 -204v-95q0 -80 23 -120h-117q-16 39 -16 120v95q0 82 -37.5 114.5t-112.5 32.5h-76v-362h-110zM657 745h93
q66 0 98.5 31t32.5 105v32q0 70 -27 105t-90 35h-107v-308z" />
    <glyph glyph-name="acute" unicode="&#xb4;" horiz-adv-x="456" 
d="M63 1526l144 211h158l-191 -211h-111z" />
    <glyph glyph-name="cedilla" unicode="&#xb8;" horiz-adv-x="509" 
d="M63 -168h109v-14q0 -31 23.5 -45.5t56.5 -16.5q35 0 58.5 17t23.5 51q0 65 -96 65h-17v129h72v-98q74 0 112.5 -22.5t38.5 -77.5q0 -38 -15 -63.5t-43 -38.5t-59.5 -18t-74.5 -5q-84 0 -136.5 28.5t-52.5 92.5v16z" />
    <glyph glyph-name="guillemotright" unicode="&#xbb;" horiz-adv-x="655" 
d="M49 184l129 535l-129 514h144l131 -514l-131 -535h-144zM332 184l129 535l-129 514h143l131 -514l-131 -535h-143z" />
    <glyph glyph-name="circumflex" unicode="&#x2c6;" horiz-adv-x="512" 
d="M8 1532l178 205h142l176 -205h-139l-109 121l-109 -121h-139z" />
    <glyph glyph-name="ring" unicode="&#x2da;" horiz-adv-x="479" 
d="M88 1667q0 63 44.5 106.5t107.5 43.5t106 -43.5t43 -106.5t-43 -106t-106 -43t-107.5 43t-44.5 106zM164 1667q0 -32 22 -53t54 -21q31 0 52 21t21 53t-21 53t-52 21q-32 0 -54 -21t-22 -53z" />
    <glyph glyph-name="tilde" unicode="&#x2dc;" horiz-adv-x="524" 
d="M12 1577q50 119 152 119q43 0 101.5 -30.5t86.5 -29.5q50 0 82 60l78 -54q-45 -118 -145 -118q-42 0 -100.5 30t-88.5 29q-56 0 -86 -59z" />
    <glyph glyph-name="afii10023" unicode="&#x401;" horiz-adv-x="737" 
d="M82 0v1434h590v-146h-430v-489h350v-144h-350v-510h430v-145h-590zM178 1518v184h139v-184h-139zM432 1518v184h141v-184h-141z" />
    <glyph glyph-name="afii10017" unicode="&#x410;" horiz-adv-x="864" 
d="M41 0l274 1434h232l274 -1434h-159l-56 289h-362l-56 -289h-147zM264 426h320l-162 827z" />
    <glyph glyph-name="afii10018" unicode="&#x411;" horiz-adv-x="821" 
d="M84 0v1434h604v-146h-446v-446h168q338 0 338 -336v-158q0 -348 -330 -348h-334zM242 145h176q88 0 129 46.5t41 146.5v178q0 101 -43 141.5t-135 40.5h-168v-553z" />
    <glyph glyph-name="afii10019" unicode="&#x412;" horiz-adv-x="802" 
d="M82 0v1434h321q164 0 238 -78.5t74 -239.5v-67q0 -118 -38.5 -187.5t-129.5 -97.5q192 -54 192 -307v-121q0 -164 -81 -250t-246 -86h-330zM242 145h170q88 0 129 47.5t41 147.5v127q0 117 -47.5 165t-153.5 48h-139v-535zM242 825h123q100 0 146 41.5t46 149.5v84
q0 97 -36.5 142.5t-121.5 45.5h-157v-463z" />
    <glyph glyph-name="afii10020" unicode="&#x413;" horiz-adv-x="729" 
d="M84 0v1434h571v-146h-413v-1288h-158z" />
    <glyph glyph-name="afii10021" unicode="&#x414;" horiz-adv-x="1001" 
d="M49 141h92q34 38 47.5 86.5t16.5 122.5l55 1084h576v-1293h108v-338h-156v197h-585v-197h-154v338zM295 141h379v1147h-266l-48 -936q-5 -81 -19 -129t-46 -82z" />
    <glyph glyph-name="afii10022" unicode="&#x415;" horiz-adv-x="737" 
d="M82 0v1434h590v-146h-430v-489h350v-144h-350v-510h430v-145h-590z" />
    <glyph glyph-name="afii10024" unicode="&#x416;" horiz-adv-x="1255" 
d="M37 0l328 825l-320 609h160l344 -660v660h158v-660l346 660h159l-317 -605l326 -829h-164l-275 676l-75 -135v-541h-158v541l-74 137l-274 -678h-164z" />
    <glyph glyph-name="afii10025" unicode="&#x417;" 
d="M74 346v139h149v-147q0 -99 42 -153t126 -54q168 0 168 219v113q0 104 -46.5 158.5t-137.5 54.5h-68v143h76q81 0 128.5 52t47.5 145v65q0 112 -40.5 167t-127.5 55q-84 0 -126 -54t-42 -153v-97h-147v91q0 169 79.5 263.5t239.5 94.5q161 0 242.5 -96.5t81.5 -264.5v-36
q0 -112 -44.5 -188.5t-131.5 -108.5q88 -30 132 -107t44 -188v-113q0 -168 -81.5 -264t-242.5 -96q-160 0 -240.5 96t-80.5 264z" />
    <glyph glyph-name="afii10026" unicode="&#x418;" horiz-adv-x="837" 
d="M82 0v1434h141v-1069l148 452l209 617h178v-1434h-144v1141l-153 -475l-213 -666h-166z" />
    <glyph glyph-name="afii10027" unicode="&#x419;" horiz-adv-x="839" 
d="M82 0v1434h141v-1069l135 419l222 650h178v-1434h-144v1141l-149 -463l-217 -678h-166zM207 1729h100q8 -105 121 -105q115 0 123 105h98q0 -94 -59 -147.5t-162 -53.5q-102 0 -160 53.5t-61 147.5z" />
    <glyph glyph-name="afii10028" unicode="&#x41a;" horiz-adv-x="837" 
d="M82 0v1434h160v-693l381 693h161l-362 -654l375 -780h-164l-307 623l-84 -142v-481h-160z" />
    <glyph glyph-name="afii10029" unicode="&#x41b;" horiz-adv-x="909" 
d="M39 -2v145q94 0 125.5 46.5t34.5 158.5l39 1086h583v-1434h-159v1288h-275l-33 -932q-6 -182 -69 -269.5t-219 -88.5h-27z" />
    <glyph glyph-name="afii10030" unicode="&#x41c;" horiz-adv-x="1071" 
d="M80 0v1434h223l236 -1145l227 1145h223v-1434h-151v1153l-228 -1151h-153l-238 1141v-1143h-139z" />
    <glyph glyph-name="afii10031" unicode="&#x41d;" horiz-adv-x="835" 
d="M82 0v1434h160v-646h352v646h160v-1434h-160v645h-352v-645h-160z" />
    <glyph glyph-name="afii10032" unicode="&#x41e;" horiz-adv-x="796" 
d="M70 346v741q0 169 83 265t244 96q162 0 246 -96t84 -265v-741q0 -167 -84 -263.5t-246 -96.5q-160 0 -243.5 96.5t-83.5 263.5zM227 338q0 -100 42.5 -153.5t127.5 -53.5q170 0 170 207v758q0 99 -42 153t-128 54q-85 0 -127.5 -54t-42.5 -153v-758z" />
    <glyph glyph-name="afii10033" unicode="&#x41f;" horiz-adv-x="835" 
d="M82 0v1434h672v-1434h-160v1288h-352v-1288h-160z" />
    <glyph glyph-name="afii10034" unicode="&#x420;" horiz-adv-x="759" 
d="M82 0v1434h313q164 0 243 -91.5t79 -259.5v-172q0 -346 -334 -346h-141v-565h-160zM242 709h141q91 0 133.5 45.5t42.5 146.5v191q0 100 -39 148t-125 48h-153v-579z" />
    <glyph glyph-name="afii10035" unicode="&#x421;" horiz-adv-x="778" 
d="M70 346v741q0 168 80.5 264.5t240.5 96.5q161 0 242.5 -96.5t81.5 -264.5v-129h-152v138q0 207 -168 207q-84 0 -126 -54t-42 -153v-758q0 -99 42 -153t126 -54q168 0 168 207v186h152v-178q0 -168 -81.5 -264t-242.5 -96q-160 0 -240.5 96t-80.5 264z" />
    <glyph glyph-name="afii10036" unicode="&#x422;" horiz-adv-x="761" 
d="M37 1288v146h688v-146h-264v-1288h-160v1288h-264z" />
    <glyph glyph-name="afii10037" unicode="&#x423;" horiz-adv-x="854" 
d="M37 1434h160l145 -498l98 -361l84 361l129 498h166l-307 -1119q-20 -87 -44.5 -143t-67.5 -99.5t-109 -61t-162 -13.5v143q92 -4 138.5 28t66.5 114l33 94z" />
    <glyph glyph-name="afii10038" unicode="&#x424;" horiz-adv-x="1165" 
d="M70 516v391q0 359 331 359h101v168h157v-168h101q168 0 250 -92.5t82 -266.5v-391q0 -358 -332 -358h-101v-158h-157v158h-101q-331 0 -331 358zM227 506q0 -209 174 -209h101v827h-101q-90 0 -132 -51t-42 -155v-412zM659 297h101q176 0 176 209v412q0 104 -42.5 155
t-133.5 51h-101v-827z" />
    <glyph glyph-name="afii10039" unicode="&#x425;" horiz-adv-x="890" 
d="M47 0l289 739l-270 695h165l222 -574l223 574h149l-268 -695l287 -739h-168l-238 618l-239 -618h-152z" />
    <glyph glyph-name="afii10040" unicode="&#x426;" horiz-adv-x="931" 
d="M96 0v1434h158v-1289h352v1289h162v-1293h109v-334h-156v193h-625z" />
    <glyph glyph-name="afii10041" unicode="&#x427;" horiz-adv-x="821" 
d="M72 862v572h159v-560q0 -93 47 -149.5t130 -56.5q72 0 116 43t56 125v598h157v-1434h-157v635q-37 -54 -97.5 -83.5t-126.5 -29.5q-139 0 -211.5 94t-72.5 246z" />
    <glyph glyph-name="afii10042" unicode="&#x428;" horiz-adv-x="1189" 
d="M82 0v1434h160v-1289h274v1289h160v-1289h274v1289h158v-1434h-1026z" />
    <glyph glyph-name="afii10043" unicode="&#x429;" horiz-adv-x="1273" 
d="M82 0v1434h160v-1289h274v1289h158v-1289h276v1289h158v-1293h111v-334h-154v193h-983z" />
    <glyph glyph-name="afii10044" unicode="&#x42a;" horiz-adv-x="897" 
d="M20 1290v144h338v-566h144q334 0 334 -346v-172q0 -168 -79.5 -259t-242.5 -91h-313v1290h-181zM358 145h156q86 0 124 48.5t38 148.5v190q0 103 -42 148t-132 45h-144v-580z" />
    <glyph glyph-name="afii10045" unicode="&#x42b;" horiz-adv-x="1089" 
d="M82 0v1434h160v-566h141q334 0 334 -346v-172q0 -168 -79.5 -259t-242.5 -91h-313zM242 145h153q86 0 125 48.5t39 148.5v190q0 103 -42.5 148t-133.5 45h-141v-580zM850 0v1434h158v-1434h-158z" />
    <glyph glyph-name="afii10046" unicode="&#x42c;" horiz-adv-x="780" 
d="M82 0v1434h160v-566h141q334 0 334 -346v-172q0 -168 -79.5 -259t-242.5 -91h-313zM242 145h153q86 0 125 48.5t39 148.5v190q0 103 -42.5 148t-133.5 45h-141v-580z" />
    <glyph glyph-name="afii10047" unicode="&#x42d;" horiz-adv-x="778" 
d="M63 346v156h150v-164q0 -99 42 -153t126 -54t126 54t42 153v332h-250v143h250v283q0 99 -42 153t-126 54t-126 -54t-42 -153v-115h-147v106q0 169 80 265t239 96q160 0 241 -96.5t81 -264.5v-741q0 -168 -81 -264t-241 -96t-241 96t-81 264z" />
    <glyph glyph-name="afii10048" unicode="&#x42e;" horiz-adv-x="1177" 
d="M82 0v1434h160v-646h207v299q0 169 83.5 265t245.5 96q161 0 244.5 -96.5t83.5 -264.5v-741q0 -167 -84 -263.5t-244 -96.5q-162 0 -245.5 96.5t-83.5 263.5v299h-207v-645h-160zM608 338q0 -99 42 -153t128 -54q85 0 127.5 54t42.5 153v758q0 100 -42.5 153.5
t-127.5 53.5q-170 0 -170 -207v-758z" />
    <glyph glyph-name="afii10049" unicode="&#x42f;" horiz-adv-x="806" 
d="M55 0q29 57 29 172v223q0 245 178 299q-176 57 -176 295v117q0 163 77 245.5t243 82.5h319v-1434h-160v612h-112q-105 0 -157 -48t-52 -165v-225q0 -112 -27 -174h-162zM244 954q0 -111 49.5 -153.5t150.5 -42.5h121v530h-155q-87 0 -126.5 -48.5t-39.5 -147.5v-138z" />
    <glyph glyph-name="afii10065" unicode="&#x430;" horiz-adv-x="864" 
d="M41 0l274 1434h232l274 -1434h-159l-56 289h-362l-56 -289h-147zM264 426h320l-162 827z" />
    <glyph glyph-name="afii10066" unicode="&#x431;" horiz-adv-x="821" 
d="M84 0v1434h604v-146h-446v-446h168q338 0 338 -336v-158q0 -348 -330 -348h-334zM242 145h176q88 0 129 46.5t41 146.5v178q0 101 -43 141.5t-135 40.5h-168v-553z" />
    <glyph glyph-name="afii10067" unicode="&#x432;" horiz-adv-x="802" 
d="M82 0v1434h321q164 0 238 -78.5t74 -239.5v-67q0 -118 -38.5 -187.5t-129.5 -97.5q192 -54 192 -307v-121q0 -164 -81 -250t-246 -86h-330zM242 145h170q88 0 129 47.5t41 147.5v127q0 117 -47.5 165t-153.5 48h-139v-535zM242 825h123q100 0 146 41.5t46 149.5v84
q0 97 -36.5 142.5t-121.5 45.5h-157v-463z" />
    <glyph glyph-name="afii10068" unicode="&#x433;" horiz-adv-x="729" 
d="M84 0v1434h571v-146h-413v-1288h-158z" />
    <glyph glyph-name="afii10069" unicode="&#x434;" horiz-adv-x="1001" 
d="M49 141h92q34 38 47.5 86.5t16.5 122.5l55 1084h576v-1293h108v-338h-156v197h-585v-197h-154v338zM295 141h379v1147h-266l-48 -936q-5 -81 -19 -129t-46 -82z" />
    <glyph glyph-name="afii10070" unicode="&#x435;" horiz-adv-x="737" 
d="M82 0v1434h590v-146h-430v-489h350v-144h-350v-510h430v-145h-590z" />
    <glyph glyph-name="afii10072" unicode="&#x436;" horiz-adv-x="1255" 
d="M37 0l328 825l-320 609h160l344 -660v660h158v-660l346 660h159l-317 -605l326 -829h-164l-275 676l-75 -135v-541h-158v541l-74 137l-274 -678h-164z" />
    <glyph glyph-name="afii10073" unicode="&#x437;" 
d="M74 346v139h149v-147q0 -99 42 -153t126 -54q168 0 168 219v113q0 104 -46.5 158.5t-137.5 54.5h-68v143h76q81 0 128.5 52t47.5 145v65q0 112 -40.5 167t-127.5 55q-84 0 -126 -54t-42 -153v-97h-147v91q0 169 79.5 263.5t239.5 94.5q161 0 242.5 -96.5t81.5 -264.5v-36
q0 -112 -44.5 -188.5t-131.5 -108.5q88 -30 132 -107t44 -188v-113q0 -168 -81.5 -264t-242.5 -96q-160 0 -240.5 96t-80.5 264z" />
    <glyph glyph-name="afii10074" unicode="&#x438;" horiz-adv-x="837" 
d="M82 0v1434h141v-1069l127 395l230 674h178v-1434h-144v1141l-155 -479l-211 -662h-166z" />
    <glyph glyph-name="afii10075" unicode="&#x439;" horiz-adv-x="839" 
d="M82 0v1434h141v-1069l133 413l224 656h178v-1434h-144v1141l-143 -451l-223 -690h-166zM207 1726h100q4 -57 35 -80.5t86 -23.5q115 0 123 104h98q0 -94 -59 -147t-162 -53q-102 0 -160 53t-61 147z" />
    <glyph glyph-name="afii10076" unicode="&#x43a;" horiz-adv-x="837" 
d="M82 0v1434h160v-693l381 693h161l-362 -654l375 -780h-164l-307 623l-84 -142v-481h-160z" />
    <glyph glyph-name="afii10077" unicode="&#x43b;" horiz-adv-x="909" 
d="M39 -2v145q94 0 125.5 46.5t34.5 158.5l39 1086h583v-1434h-159v1288h-275l-33 -932q-6 -182 -69 -269.5t-219 -88.5h-27z" />
    <glyph glyph-name="afii10078" unicode="&#x43c;" horiz-adv-x="1071" 
d="M80 0v1434h223l236 -1145l227 1145h223v-1434h-151v1153l-228 -1151h-153l-238 1141v-1143h-139z" />
    <glyph glyph-name="afii10079" unicode="&#x43d;" horiz-adv-x="835" 
d="M82 0v1434h160v-646h352v646h160v-1434h-160v645h-352v-645h-160z" />
    <glyph glyph-name="afii10080" unicode="&#x43e;" horiz-adv-x="796" 
d="M70 346v741q0 169 83 265t244 96q162 0 246 -96t84 -265v-741q0 -167 -84 -263.5t-246 -96.5q-160 0 -243.5 96.5t-83.5 263.5zM227 338q0 -100 42.5 -153.5t127.5 -53.5q170 0 170 207v758q0 99 -42 153t-128 54q-85 0 -127.5 -54t-42.5 -153v-758z" />
    <glyph glyph-name="afii10081" unicode="&#x43f;" horiz-adv-x="835" 
d="M82 0v1434h672v-1434h-160v1288h-352v-1288h-160z" />
    <glyph glyph-name="afii10082" unicode="&#x440;" horiz-adv-x="759" 
d="M82 0v1434h313q164 0 243 -91.5t79 -259.5v-172q0 -346 -334 -346h-141v-565h-160zM242 709h141q91 0 133.5 45.5t42.5 146.5v191q0 100 -39 148t-125 48h-153v-579z" />
    <glyph glyph-name="afii10083" unicode="&#x441;" horiz-adv-x="778" 
d="M70 346v741q0 168 80.5 264.5t240.5 96.5q161 0 242.5 -96.5t81.5 -264.5v-129h-152v138q0 207 -168 207q-84 0 -126 -54t-42 -153v-758q0 -99 42 -153t126 -54q168 0 168 207v186h152v-178q0 -168 -81.5 -264t-242.5 -96q-160 0 -240.5 96t-80.5 264z" />
    <glyph glyph-name="afii10084" unicode="&#x442;" horiz-adv-x="761" 
d="M37 1288v146h688v-146h-264v-1288h-160v1288h-264z" />
    <glyph glyph-name="afii10085" unicode="&#x443;" horiz-adv-x="854" 
d="M37 1434h160l145 -498l98 -361l84 361l129 498h166l-307 -1119q-20 -87 -44.5 -143t-67.5 -99.5t-109 -61t-162 -13.5v143q92 -4 138.5 28t66.5 114l33 94z" />
    <glyph glyph-name="afii10086" unicode="&#x444;" horiz-adv-x="1165" 
d="M70 516v391q0 359 331 359h101v168h157v-168h101q168 0 250 -92.5t82 -266.5v-391q0 -358 -332 -358h-101v-158h-157v158h-101q-331 0 -331 358zM227 506q0 -209 174 -209h101v827h-101q-90 0 -132 -51t-42 -155v-412zM659 297h101q176 0 176 209v412q0 104 -42.5 155
t-133.5 51h-101v-827z" />
    <glyph glyph-name="afii10087" unicode="&#x445;" horiz-adv-x="890" 
d="M47 0l289 739l-270 695h165l222 -574l223 574h149l-268 -695l287 -739h-168l-238 618l-239 -618h-152z" />
    <glyph glyph-name="afii10088" unicode="&#x446;" horiz-adv-x="931" 
d="M96 0v1434h158v-1289h352v1289h162v-1293h109v-334h-156v193h-625z" />
    <glyph glyph-name="afii10089" unicode="&#x447;" horiz-adv-x="821" 
d="M72 862v572h159v-560q0 -93 47 -149.5t130 -56.5q72 0 116 43t56 125v598h157v-1434h-157v635q-37 -54 -97.5 -83.5t-126.5 -29.5q-139 0 -211.5 94t-72.5 246z" />
    <glyph glyph-name="afii10090" unicode="&#x448;" horiz-adv-x="1189" 
d="M82 0v1434h160v-1289h274v1289h160v-1289h274v1289h158v-1434h-1026z" />
    <glyph glyph-name="afii10091" unicode="&#x449;" horiz-adv-x="1273" 
d="M82 0v1434h160v-1289h274v1289h158v-1289h276v1289h158v-1293h111v-334h-154v193h-983z" />
    <glyph glyph-name="afii10092" unicode="&#x44a;" horiz-adv-x="897" 
d="M20 1290v144h338v-566h144q334 0 334 -346v-172q0 -168 -79.5 -259t-242.5 -91h-313v1290h-181zM358 145h156q86 0 124 48.5t38 148.5v190q0 103 -42 148t-132 45h-144v-580z" />
    <glyph glyph-name="afii10093" unicode="&#x44b;" horiz-adv-x="1089" 
d="M82 0v1434h160v-566h141q334 0 334 -346v-172q0 -168 -79.5 -259t-242.5 -91h-313zM242 145h153q86 0 125 48.5t39 148.5v190q0 103 -42.5 148t-133.5 45h-141v-580zM850 0v1434h158v-1434h-158z" />
    <glyph glyph-name="afii10094" unicode="&#x44c;" horiz-adv-x="780" 
d="M82 0v1434h160v-566h141q334 0 334 -346v-172q0 -168 -79.5 -259t-242.5 -91h-313zM242 145h153q86 0 125 48.5t39 148.5v190q0 103 -42.5 148t-133.5 45h-141v-580z" />
    <glyph glyph-name="afii10095" unicode="&#x44d;" horiz-adv-x="778" 
d="M63 346v156h150v-164q0 -99 42 -153t126 -54t126 54t42 153v332h-250v143h250v283q0 99 -42 153t-126 54t-126 -54t-42 -153v-115h-147v106q0 169 80 265t239 96q160 0 241 -96.5t81 -264.5v-741q0 -168 -81 -264t-241 -96t-241 96t-81 264z" />
    <glyph glyph-name="afii10096" unicode="&#x44e;" horiz-adv-x="1177" 
d="M82 0v1434h160v-646h207v299q0 169 83.5 265t245.5 96q161 0 244.5 -96.5t83.5 -264.5v-741q0 -167 -84 -263.5t-244 -96.5q-162 0 -245.5 96.5t-83.5 263.5v299h-207v-645h-160zM608 338q0 -99 42 -153t128 -54q85 0 127.5 54t42.5 153v758q0 100 -42.5 153.5
t-127.5 53.5q-170 0 -170 -207v-758z" />
    <glyph glyph-name="afii10097" unicode="&#x44f;" horiz-adv-x="806" 
d="M55 0q29 57 29 172v223q0 245 178 299q-176 57 -176 295v117q0 163 77 245.5t243 82.5h319v-1434h-160v612h-112q-105 0 -157 -48t-52 -165v-225q0 -112 -27 -174h-162zM244 954q0 -111 49.5 -153.5t150.5 -42.5h121v530h-155q-87 0 -126.5 -48.5t-39.5 -147.5v-138z" />
    <glyph glyph-name="afii10071" unicode="&#x451;" horiz-adv-x="737" 
d="M82 0v1434h590v-146h-430v-489h350v-144h-350v-510h430v-145h-590zM178 1518v184h139v-184h-139zM432 1518v184h141v-184h-141z" />
    <glyph glyph-name="uni2000" unicode="&#x2000;" horiz-adv-x="908" 
 />
    <glyph glyph-name="uni2001" unicode="&#x2001;" horiz-adv-x="1817" 
 />
    <glyph glyph-name="uni2002" unicode="&#x2002;" horiz-adv-x="908" 
 />
    <glyph glyph-name="uni2003" unicode="&#x2003;" horiz-adv-x="1817" 
 />
    <glyph glyph-name="uni2004" unicode="&#x2004;" horiz-adv-x="605" 
 />
    <glyph glyph-name="uni2005" unicode="&#x2005;" horiz-adv-x="454" 
 />
    <glyph glyph-name="uni2006" unicode="&#x2006;" horiz-adv-x="302" 
 />
    <glyph glyph-name="uni2007" unicode="&#x2007;" horiz-adv-x="302" 
 />
    <glyph glyph-name="uni2008" unicode="&#x2008;" horiz-adv-x="227" 
 />
    <glyph glyph-name="uni2009" unicode="&#x2009;" horiz-adv-x="363" 
 />
    <glyph glyph-name="uni200A" unicode="&#x200a;" horiz-adv-x="100" 
 />
    <glyph glyph-name="uni2010" unicode="&#x2010;" horiz-adv-x="542" 
d="M76 645v143h391v-143h-391z" />
    <glyph glyph-name="uni2011" unicode="&#x2011;" horiz-adv-x="542" 
d="M76 645v143h391v-143h-391z" />
    <glyph glyph-name="figuredash" unicode="&#x2012;" horiz-adv-x="542" 
d="M76 645v143h391v-143h-391z" />
    <glyph glyph-name="endash" unicode="&#x2013;" horiz-adv-x="937" 
d="M27 651v131h884v-131h-884z" />
    <glyph glyph-name="emdash" unicode="&#x2014;" horiz-adv-x="1705" 
d="M27 651v131h1652v-131h-1652z" />
    <glyph glyph-name="quoteleft" unicode="&#x2018;" horiz-adv-x="327" 
d="M82 1055v184l78 195h67l-51 -181h60v-198h-154z" />
    <glyph glyph-name="quoteright" unicode="&#x2019;" horiz-adv-x="327" 
d="M92 1235v199h154v-183l-80 -196h-66l52 180h-60z" />
    <glyph glyph-name="quotesinglbase" unicode="&#x201a;" horiz-adv-x="327" 
d="M92 0v199h154v-185l-80 -194h-66l52 180h-60z" />
    <glyph glyph-name="quotedblleft" unicode="&#x201c;" horiz-adv-x="555" 
d="M82 1055v184l78 195h67l-51 -181h60v-198h-154zM311 1055v184l78 195h66l-49 -181h57v-198h-152z" />
    <glyph glyph-name="quotedblright" unicode="&#x201d;" horiz-adv-x="555" 
d="M82 1235v199h151v-185l-77 -194h-66l49 180h-57zM309 1235v199h154v-185l-78 -194h-68l52 180h-60z" />
    <glyph glyph-name="quotedblbase" unicode="&#x201e;" horiz-adv-x="561" 
d="M92 0v199h154v-185l-80 -194h-66l52 180h-60zM326 0v199h153v-185l-78 -194h-67l51 180h-59z" />
    <glyph glyph-name="bullet" unicode="&#x2022;" horiz-adv-x="671" 
d="M121 717q0 89 63 152t152 63t152 -63t63 -152t-63 -152t-152 -63t-152 63t-63 152z" />
    <glyph glyph-name="ellipsis" unicode="&#x2026;" horiz-adv-x="776" 
d="M82 0v199h154v-199h-154zM311 0v199h154v-199h-154zM541 0v199h153v-199h-153z" />
    <glyph glyph-name="uni202F" unicode="&#x202f;" horiz-adv-x="363" 
 />
    <glyph glyph-name="guilsinglleft" unicode="&#x2039;" horiz-adv-x="374" 
d="M49 719l127 526h152l-127 -526l127 -549h-152z" />
    <glyph glyph-name="guilsinglright" unicode="&#x203a;" horiz-adv-x="374" 
d="M49 172l125 547l-125 526h150l129 -526l-129 -547h-150z" />
    <glyph glyph-name="uni205F" unicode="&#x205f;" horiz-adv-x="454" 
 />
    <glyph glyph-name="Euro" unicode="&#x20ac;" horiz-adv-x="813" 
d="M27 567v84h90v142h-90v81h90v213q0 169 78 265t237 96t237.5 -96t78.5 -265v-92h-150v101q0 207 -162 207t-162 -207v-222h357v-81h-357v-142h357v-84h-357v-229q0 -207 162 -207t162 207v111h150v-103q0 -168 -78.5 -264t-237.5 -96t-237 96t-78 264v221h-90z" />
    <glyph glyph-name="trademark" unicode="&#x2122;" horiz-adv-x="1193" 
d="M25 1339v95h436v-95h-166v-634h-102v634h-168zM553 705v729h143l150 -570l143 570h144v-729h-99v575l-141 -571h-98l-150 567v-571h-92z" />
    <glyph glyph-name="uni25FC" unicode="&#x25fc;" horiz-adv-x="1433" 
d="M0 0v1434h1434v-1434h-1434z" />
    <hkern u1="&#x28;" u2="y" k="-10" />
    <hkern u1="&#x28;" u2="w" k="-6" />
    <hkern u1="&#x28;" u2="v" k="-6" />
    <hkern u1="&#x28;" u2="t" k="-16" />
    <hkern u1="&#x28;" u2="Y" k="-10" />
    <hkern u1="&#x28;" u2="W" k="-6" />
    <hkern u1="&#x28;" u2="V" k="-6" />
    <hkern u1="&#x28;" u2="T" k="-16" />
    <hkern u1="&#x2c;" u2="y" k="164" />
    <hkern u1="&#x2c;" u2="w" k="82" />
    <hkern u1="&#x2c;" u2="v" k="123" />
    <hkern u1="&#x2c;" u2="u" k="12" />
    <hkern u1="&#x2c;" u2="t" k="123" />
    <hkern u1="&#x2c;" u2="s" k="10" />
    <hkern u1="&#x2c;" u2="q" k="20" />
    <hkern u1="&#x2c;" u2="o" k="20" />
    <hkern u1="&#x2c;" u2="g" k="20" />
    <hkern u1="&#x2c;" u2="c" k="20" />
    <hkern u1="&#x2c;" u2="Y" k="164" />
    <hkern u1="&#x2c;" u2="W" k="82" />
    <hkern u1="&#x2c;" u2="V" k="123" />
    <hkern u1="&#x2c;" u2="U" k="12" />
    <hkern u1="&#x2c;" u2="T" k="123" />
    <hkern u1="&#x2c;" u2="S" k="10" />
    <hkern u1="&#x2c;" u2="Q" k="20" />
    <hkern u1="&#x2c;" u2="O" k="20" />
    <hkern u1="&#x2c;" u2="G" k="20" />
    <hkern u1="&#x2c;" u2="C" k="20" />
    <hkern u1="&#x2d;" u2="x" k="31" />
    <hkern u1="&#x2d;" u2="v" k="20" />
    <hkern u1="&#x2d;" u2="X" k="31" />
    <hkern u1="&#x2d;" u2="V" k="20" />
    <hkern u1="&#x2e;" u2="y" k="164" />
    <hkern u1="&#x2e;" u2="w" k="82" />
    <hkern u1="&#x2e;" u2="v" k="123" />
    <hkern u1="&#x2e;" u2="u" k="12" />
    <hkern u1="&#x2e;" u2="t" k="123" />
    <hkern u1="&#x2e;" u2="s" k="10" />
    <hkern u1="&#x2e;" u2="q" k="20" />
    <hkern u1="&#x2e;" u2="o" k="20" />
    <hkern u1="&#x2e;" u2="g" k="20" />
    <hkern u1="&#x2e;" u2="c" k="20" />
    <hkern u1="&#x2e;" u2="Y" k="164" />
    <hkern u1="&#x2e;" u2="W" k="82" />
    <hkern u1="&#x2e;" u2="V" k="123" />
    <hkern u1="&#x2e;" u2="U" k="12" />
    <hkern u1="&#x2e;" u2="T" k="123" />
    <hkern u1="&#x2e;" u2="S" k="10" />
    <hkern u1="&#x2e;" u2="Q" k="20" />
    <hkern u1="&#x2e;" u2="O" k="20" />
    <hkern u1="&#x2e;" u2="G" k="20" />
    <hkern u1="&#x2e;" u2="C" k="20" />
    <hkern u1="&#x2f;" u2="&#x2f;" k="369" />
    <hkern u1="&#x3a;" u2="y" k="41" />
    <hkern u1="&#x3a;" u2="t" k="72" />
    <hkern u1="&#x3a;" u2="Y" k="41" />
    <hkern u1="&#x3a;" u2="T" k="72" />
    <hkern u1="&#x3b;" u2="y" k="41" />
    <hkern u1="&#x3b;" u2="t" k="72" />
    <hkern u1="&#x3b;" u2="Y" k="41" />
    <hkern u1="&#x3b;" u2="T" k="72" />
    <hkern u1="A" u2="&#x201d;" k="123" />
    <hkern u1="A" u2="&#x201c;" k="123" />
    <hkern u1="A" u2="&#x2018;" k="123" />
    <hkern u1="A" u2="v" k="51" />
    <hkern u1="A" u2="q" k="2" />
    <hkern u1="A" u2="V" k="51" />
    <hkern u1="A" u2="Q" k="2" />
    <hkern u1="A" u2="&#x3f;" k="61" />
    <hkern u1="B" u2="&#x2026;" k="10" />
    <hkern u1="B" u2="&#x201e;" k="10" />
    <hkern u1="B" u2="&#x201d;" k="20" />
    <hkern u1="B" u2="&#x201c;" k="20" />
    <hkern u1="B" u2="&#x201a;" k="10" />
    <hkern u1="B" u2="&#x2018;" k="20" />
    <hkern u1="B" u2="x" k="6" />
    <hkern u1="B" u2="v" k="8" />
    <hkern u1="B" u2="X" k="6" />
    <hkern u1="B" u2="V" k="8" />
    <hkern u1="B" u2="&#x2e;" k="10" />
    <hkern u1="B" u2="&#x2c;" k="10" />
    <hkern u1="C" u2="&#x2026;" k="12" />
    <hkern u1="C" u2="&#x201e;" k="12" />
    <hkern u1="C" u2="&#x201d;" k="12" />
    <hkern u1="C" u2="&#x201c;" k="12" />
    <hkern u1="C" u2="&#x201a;" k="12" />
    <hkern u1="C" u2="&#x2018;" k="12" />
    <hkern u1="C" u2="x" k="23" />
    <hkern u1="C" u2="X" k="23" />
    <hkern u1="C" u2="&#x2e;" k="12" />
    <hkern u1="C" u2="&#x2c;" k="12" />
    <hkern u1="D" u2="&#x2026;" k="20" />
    <hkern u1="D" u2="&#x201e;" k="20" />
    <hkern u1="D" u2="&#x201d;" k="20" />
    <hkern u1="D" u2="&#x201c;" k="20" />
    <hkern u1="D" u2="&#x201a;" k="20" />
    <hkern u1="D" u2="&#x2018;" k="20" />
    <hkern u1="D" u2="x" k="31" />
    <hkern u1="D" u2="v" k="2" />
    <hkern u1="D" u2="X" k="31" />
    <hkern u1="D" u2="V" k="2" />
    <hkern u1="D" u2="&#x2e;" k="20" />
    <hkern u1="D" u2="&#x2c;" k="20" />
    <hkern u1="F" u2="&#x2026;" k="143" />
    <hkern u1="F" u2="&#x201e;" k="143" />
    <hkern u1="F" u2="&#x201a;" k="143" />
    <hkern u1="F" u2="&#x7d;" k="-10" />
    <hkern u1="F" u2="]" k="-10" />
    <hkern u1="F" u2="&#x2e;" k="143" />
    <hkern u1="F" u2="&#x2c;" k="143" />
    <hkern u1="F" u2="&#x29;" k="-10" />
    <hkern u1="G" u2="&#x2026;" k="20" />
    <hkern u1="G" u2="&#x201e;" k="20" />
    <hkern u1="G" u2="&#x201d;" k="20" />
    <hkern u1="G" u2="&#x201c;" k="20" />
    <hkern u1="G" u2="&#x201a;" k="20" />
    <hkern u1="G" u2="&#x2018;" k="20" />
    <hkern u1="G" u2="x" k="31" />
    <hkern u1="G" u2="v" k="2" />
    <hkern u1="G" u2="X" k="31" />
    <hkern u1="G" u2="V" k="2" />
    <hkern u1="G" u2="&#x2e;" k="20" />
    <hkern u1="G" u2="&#x2c;" k="20" />
    <hkern u1="J" u2="&#x2026;" k="12" />
    <hkern u1="J" u2="&#x201e;" k="12" />
    <hkern u1="J" u2="&#x201a;" k="12" />
    <hkern u1="J" u2="&#x2e;" k="12" />
    <hkern u1="J" u2="&#x2c;" k="12" />
    <hkern u1="K" u2="q" k="14" />
    <hkern u1="K" u2="Q" k="14" />
    <hkern u1="L" u2="&#x201d;" k="154" />
    <hkern u1="L" u2="&#x201c;" k="154" />
    <hkern u1="L" u2="&#x2018;" k="154" />
    <hkern u1="L" u2="&#x7d;" k="-16" />
    <hkern u1="L" u2="v" k="68" />
    <hkern u1="L" u2="]" k="-16" />
    <hkern u1="L" u2="V" k="68" />
    <hkern u1="L" u2="&#x3f;" k="61" />
    <hkern u1="L" u2="&#x29;" k="-16" />
    <hkern u1="O" u2="&#x2026;" k="20" />
    <hkern u1="O" u2="&#x201e;" k="20" />
    <hkern u1="O" u2="&#x201d;" k="20" />
    <hkern u1="O" u2="&#x201c;" k="20" />
    <hkern u1="O" u2="&#x201a;" k="20" />
    <hkern u1="O" u2="&#x2018;" k="20" />
    <hkern u1="O" u2="x" k="31" />
    <hkern u1="O" u2="v" k="2" />
    <hkern u1="O" u2="X" k="31" />
    <hkern u1="O" u2="V" k="2" />
    <hkern u1="O" u2="&#x2e;" k="20" />
    <hkern u1="O" u2="&#x2c;" k="20" />
    <hkern u1="P" u2="&#x2026;" k="164" />
    <hkern u1="P" u2="&#x201e;" k="164" />
    <hkern u1="P" u2="&#x201a;" k="164" />
    <hkern u1="P" u2="x" k="23" />
    <hkern u1="P" u2="X" k="23" />
    <hkern u1="P" u2="&#x2e;" k="164" />
    <hkern u1="P" u2="&#x2c;" k="164" />
    <hkern u1="Q" u2="&#x201d;" k="20" />
    <hkern u1="Q" u2="&#x201c;" k="20" />
    <hkern u1="Q" u2="&#x2019;" k="20" />
    <hkern u1="Q" u2="&#x2018;" k="20" />
    <hkern u1="Q" u2="y" k="27" />
    <hkern u1="Q" u2="v" k="2" />
    <hkern u1="Q" u2="Y" k="27" />
    <hkern u1="Q" u2="V" k="2" />
    <hkern u1="R" u2="v" k="4" />
    <hkern u1="R" u2="V" k="4" />
    <hkern u1="S" u2="&#x2026;" k="10" />
    <hkern u1="S" u2="&#x201e;" k="10" />
    <hkern u1="S" u2="&#x201d;" k="10" />
    <hkern u1="S" u2="&#x201c;" k="10" />
    <hkern u1="S" u2="&#x201a;" k="10" />
    <hkern u1="S" u2="&#x2018;" k="10" />
    <hkern u1="S" u2="x" k="16" />
    <hkern u1="S" u2="v" k="2" />
    <hkern u1="S" u2="X" k="16" />
    <hkern u1="S" u2="V" k="2" />
    <hkern u1="S" u2="&#x2e;" k="10" />
    <hkern u1="S" u2="&#x2c;" k="10" />
    <hkern u1="T" u2="&#x2026;" k="123" />
    <hkern u1="T" u2="&#x201e;" k="123" />
    <hkern u1="T" u2="&#x201a;" k="123" />
    <hkern u1="T" u2="&#x7d;" k="-16" />
    <hkern u1="T" u2="]" k="-16" />
    <hkern u1="T" u2="&#x3b;" k="72" />
    <hkern u1="T" u2="&#x3a;" k="72" />
    <hkern u1="T" u2="&#x2e;" k="123" />
    <hkern u1="T" u2="&#x2c;" k="123" />
    <hkern u1="T" u2="&#x29;" k="-16" />
    <hkern u1="U" u2="&#x2026;" k="12" />
    <hkern u1="U" u2="&#x201e;" k="12" />
    <hkern u1="U" u2="&#x201a;" k="12" />
    <hkern u1="U" u2="&#x2e;" k="12" />
    <hkern u1="U" u2="&#x2c;" k="12" />
    <hkern u1="V" u2="&#x2026;" k="123" />
    <hkern u1="V" u2="&#x201e;" k="123" />
    <hkern u1="V" u2="&#x201a;" k="123" />
    <hkern u1="V" u2="&#x7d;" k="-6" />
    <hkern u1="V" u2="q" k="2" />
    <hkern u1="V" u2="o" k="2" />
    <hkern u1="V" u2="j" k="51" />
    <hkern u1="V" u2="g" k="2" />
    <hkern u1="V" u2="c" k="2" />
    <hkern u1="V" u2="a" k="51" />
    <hkern u1="V" u2="]" k="-6" />
    <hkern u1="V" u2="Q" k="2" />
    <hkern u1="V" u2="O" k="2" />
    <hkern u1="V" u2="J" k="51" />
    <hkern u1="V" u2="G" k="2" />
    <hkern u1="V" u2="C" k="2" />
    <hkern u1="V" u2="A" k="51" />
    <hkern u1="V" u2="&#x2e;" k="123" />
    <hkern u1="V" u2="&#x2d;" k="20" />
    <hkern u1="V" u2="&#x2c;" k="123" />
    <hkern u1="V" u2="&#x29;" k="-6" />
    <hkern u1="W" u2="&#x2026;" k="82" />
    <hkern u1="W" u2="&#x201e;" k="82" />
    <hkern u1="W" u2="&#x201a;" k="82" />
    <hkern u1="W" u2="&#x7d;" k="-6" />
    <hkern u1="W" u2="]" k="-6" />
    <hkern u1="W" u2="&#x2e;" k="82" />
    <hkern u1="W" u2="&#x2c;" k="82" />
    <hkern u1="W" u2="&#x29;" k="-6" />
    <hkern u1="X" u2="&#x201d;" k="4" />
    <hkern u1="X" u2="&#x201c;" k="4" />
    <hkern u1="X" u2="&#x2019;" k="4" />
    <hkern u1="X" u2="&#x2018;" k="4" />
    <hkern u1="X" u2="s" k="16" />
    <hkern u1="X" u2="q" k="31" />
    <hkern u1="X" u2="o" k="31" />
    <hkern u1="X" u2="g" k="31" />
    <hkern u1="X" u2="c" k="31" />
    <hkern u1="X" u2="S" k="16" />
    <hkern u1="X" u2="Q" k="31" />
    <hkern u1="X" u2="O" k="31" />
    <hkern u1="X" u2="G" k="31" />
    <hkern u1="X" u2="C" k="31" />
    <hkern u1="X" u2="&#x2d;" k="31" />
    <hkern u1="Y" u2="&#x2026;" k="164" />
    <hkern u1="Y" u2="&#x201e;" k="164" />
    <hkern u1="Y" u2="&#x201a;" k="164" />
    <hkern u1="Y" u2="&#x7d;" k="-10" />
    <hkern u1="Y" u2="q" k="31" />
    <hkern u1="Y" u2="]" k="-10" />
    <hkern u1="Y" u2="Q" k="31" />
    <hkern u1="Y" u2="&#x3b;" k="41" />
    <hkern u1="Y" u2="&#x3a;" k="41" />
    <hkern u1="Y" u2="&#x2e;" k="164" />
    <hkern u1="Y" u2="&#x2c;" k="164" />
    <hkern u1="Y" u2="&#x29;" k="-10" />
    <hkern u1="[" u2="y" k="-10" />
    <hkern u1="[" u2="w" k="-6" />
    <hkern u1="[" u2="v" k="-6" />
    <hkern u1="[" u2="t" k="-16" />
    <hkern u1="[" u2="Y" k="-10" />
    <hkern u1="[" u2="W" k="-6" />
    <hkern u1="[" u2="V" k="-6" />
    <hkern u1="[" u2="T" k="-16" />
    <hkern u1="a" u2="&#x201d;" k="123" />
    <hkern u1="a" u2="&#x201c;" k="123" />
    <hkern u1="a" u2="&#x2018;" k="123" />
    <hkern u1="a" u2="v" k="51" />
    <hkern u1="a" u2="q" k="2" />
    <hkern u1="a" u2="V" k="51" />
    <hkern u1="a" u2="Q" k="2" />
    <hkern u1="a" u2="&#x3f;" k="61" />
    <hkern u1="b" u2="&#x2026;" k="10" />
    <hkern u1="b" u2="&#x201e;" k="10" />
    <hkern u1="b" u2="&#x201d;" k="20" />
    <hkern u1="b" u2="&#x201c;" k="20" />
    <hkern u1="b" u2="&#x201a;" k="10" />
    <hkern u1="b" u2="&#x2018;" k="20" />
    <hkern u1="b" u2="x" k="6" />
    <hkern u1="b" u2="v" k="8" />
    <hkern u1="b" u2="X" k="6" />
    <hkern u1="b" u2="V" k="8" />
    <hkern u1="b" u2="&#x2e;" k="10" />
    <hkern u1="b" u2="&#x2c;" k="10" />
    <hkern u1="c" u2="&#x2026;" k="12" />
    <hkern u1="c" u2="&#x201e;" k="12" />
    <hkern u1="c" u2="&#x201d;" k="12" />
    <hkern u1="c" u2="&#x201c;" k="12" />
    <hkern u1="c" u2="&#x201a;" k="12" />
    <hkern u1="c" u2="&#x2018;" k="12" />
    <hkern u1="c" u2="x" k="23" />
    <hkern u1="c" u2="X" k="23" />
    <hkern u1="c" u2="&#x2e;" k="12" />
    <hkern u1="c" u2="&#x2c;" k="12" />
    <hkern u1="d" u2="&#x2026;" k="20" />
    <hkern u1="d" u2="&#x201e;" k="20" />
    <hkern u1="d" u2="&#x201d;" k="20" />
    <hkern u1="d" u2="&#x201c;" k="20" />
    <hkern u1="d" u2="&#x201a;" k="20" />
    <hkern u1="d" u2="&#x2018;" k="20" />
    <hkern u1="d" u2="x" k="31" />
    <hkern u1="d" u2="v" k="2" />
    <hkern u1="d" u2="X" k="31" />
    <hkern u1="d" u2="V" k="2" />
    <hkern u1="d" u2="&#x2e;" k="20" />
    <hkern u1="d" u2="&#x2c;" k="20" />
    <hkern u1="f" u2="&#x2026;" k="143" />
    <hkern u1="f" u2="&#x201e;" k="143" />
    <hkern u1="f" u2="&#x201a;" k="143" />
    <hkern u1="f" u2="&#x7d;" k="-10" />
    <hkern u1="f" u2="]" k="-10" />
    <hkern u1="f" u2="&#x2e;" k="143" />
    <hkern u1="f" u2="&#x2c;" k="143" />
    <hkern u1="f" u2="&#x29;" k="-10" />
    <hkern u1="g" u2="&#x2026;" k="20" />
    <hkern u1="g" u2="&#x201e;" k="20" />
    <hkern u1="g" u2="&#x201d;" k="20" />
    <hkern u1="g" u2="&#x201c;" k="20" />
    <hkern u1="g" u2="&#x201a;" k="20" />
    <hkern u1="g" u2="&#x2018;" k="20" />
    <hkern u1="g" u2="x" k="31" />
    <hkern u1="g" u2="v" k="2" />
    <hkern u1="g" u2="X" k="31" />
    <hkern u1="g" u2="V" k="2" />
    <hkern u1="g" u2="&#x2e;" k="20" />
    <hkern u1="g" u2="&#x2c;" k="20" />
    <hkern u1="j" u2="&#x2026;" k="12" />
    <hkern u1="j" u2="&#x201e;" k="12" />
    <hkern u1="j" u2="&#x201a;" k="12" />
    <hkern u1="j" u2="&#x2e;" k="12" />
    <hkern u1="j" u2="&#x2c;" k="12" />
    <hkern u1="k" u2="q" k="14" />
    <hkern u1="k" u2="Q" k="14" />
    <hkern u1="l" u2="&#x201d;" k="154" />
    <hkern u1="l" u2="&#x201c;" k="154" />
    <hkern u1="l" u2="&#x2018;" k="154" />
    <hkern u1="l" u2="&#x7d;" k="-16" />
    <hkern u1="l" u2="v" k="68" />
    <hkern u1="l" u2="]" k="-16" />
    <hkern u1="l" u2="V" k="68" />
    <hkern u1="l" u2="&#x3f;" k="61" />
    <hkern u1="l" u2="&#x29;" k="-16" />
    <hkern u1="o" u2="&#x2026;" k="20" />
    <hkern u1="o" u2="&#x201e;" k="20" />
    <hkern u1="o" u2="&#x201d;" k="20" />
    <hkern u1="o" u2="&#x201c;" k="20" />
    <hkern u1="o" u2="&#x201a;" k="20" />
    <hkern u1="o" u2="&#x2018;" k="20" />
    <hkern u1="o" u2="x" k="31" />
    <hkern u1="o" u2="v" k="2" />
    <hkern u1="o" u2="X" k="31" />
    <hkern u1="o" u2="V" k="2" />
    <hkern u1="o" u2="&#x2e;" k="20" />
    <hkern u1="o" u2="&#x2c;" k="20" />
    <hkern u1="p" u2="&#x2026;" k="164" />
    <hkern u1="p" u2="&#x201e;" k="164" />
    <hkern u1="p" u2="&#x201a;" k="164" />
    <hkern u1="p" u2="x" k="23" />
    <hkern u1="p" u2="X" k="23" />
    <hkern u1="p" u2="&#x2e;" k="164" />
    <hkern u1="p" u2="&#x2c;" k="164" />
    <hkern u1="q" u2="&#x201d;" k="20" />
    <hkern u1="q" u2="&#x201c;" k="20" />
    <hkern u1="q" u2="&#x2019;" k="20" />
    <hkern u1="q" u2="&#x2018;" k="20" />
    <hkern u1="q" u2="y" k="27" />
    <hkern u1="q" u2="v" k="2" />
    <hkern u1="q" u2="Y" k="27" />
    <hkern u1="q" u2="V" k="2" />
    <hkern u1="r" u2="v" k="4" />
    <hkern u1="r" u2="V" k="4" />
    <hkern u1="s" u2="&#x2026;" k="10" />
    <hkern u1="s" u2="&#x201e;" k="10" />
    <hkern u1="s" u2="&#x201d;" k="10" />
    <hkern u1="s" u2="&#x201c;" k="10" />
    <hkern u1="s" u2="&#x201a;" k="10" />
    <hkern u1="s" u2="&#x2018;" k="10" />
    <hkern u1="s" u2="x" k="16" />
    <hkern u1="s" u2="v" k="2" />
    <hkern u1="s" u2="X" k="16" />
    <hkern u1="s" u2="V" k="2" />
    <hkern u1="s" u2="&#x2e;" k="10" />
    <hkern u1="s" u2="&#x2c;" k="10" />
    <hkern u1="t" u2="&#x2026;" k="123" />
    <hkern u1="t" u2="&#x201e;" k="123" />
    <hkern u1="t" u2="&#x201a;" k="123" />
    <hkern u1="t" u2="&#x7d;" k="-16" />
    <hkern u1="t" u2="]" k="-16" />
    <hkern u1="t" u2="&#x3b;" k="72" />
    <hkern u1="t" u2="&#x3a;" k="72" />
    <hkern u1="t" u2="&#x2e;" k="123" />
    <hkern u1="t" u2="&#x2c;" k="123" />
    <hkern u1="t" u2="&#x29;" k="-16" />
    <hkern u1="u" u2="&#x2026;" k="12" />
    <hkern u1="u" u2="&#x201e;" k="12" />
    <hkern u1="u" u2="&#x201a;" k="12" />
    <hkern u1="u" u2="&#x2e;" k="12" />
    <hkern u1="u" u2="&#x2c;" k="12" />
    <hkern u1="v" u2="&#x2026;" k="123" />
    <hkern u1="v" u2="&#x201e;" k="123" />
    <hkern u1="v" u2="&#x201a;" k="123" />
    <hkern u1="v" u2="&#x7d;" k="-6" />
    <hkern u1="v" u2="q" k="2" />
    <hkern u1="v" u2="o" k="2" />
    <hkern u1="v" u2="j" k="51" />
    <hkern u1="v" u2="g" k="2" />
    <hkern u1="v" u2="c" k="2" />
    <hkern u1="v" u2="a" k="51" />
    <hkern u1="v" u2="]" k="-6" />
    <hkern u1="v" u2="Q" k="2" />
    <hkern u1="v" u2="O" k="2" />
    <hkern u1="v" u2="J" k="51" />
    <hkern u1="v" u2="G" k="2" />
    <hkern u1="v" u2="C" k="2" />
    <hkern u1="v" u2="A" k="51" />
    <hkern u1="v" u2="&#x2e;" k="123" />
    <hkern u1="v" u2="&#x2d;" k="20" />
    <hkern u1="v" u2="&#x2c;" k="123" />
    <hkern u1="v" u2="&#x29;" k="-6" />
    <hkern u1="w" u2="&#x2026;" k="82" />
    <hkern u1="w" u2="&#x201e;" k="82" />
    <hkern u1="w" u2="&#x201a;" k="82" />
    <hkern u1="w" u2="&#x7d;" k="-6" />
    <hkern u1="w" u2="]" k="-6" />
    <hkern u1="w" u2="&#x2e;" k="82" />
    <hkern u1="w" u2="&#x2c;" k="82" />
    <hkern u1="w" u2="&#x29;" k="-6" />
    <hkern u1="x" u2="&#x201d;" k="4" />
    <hkern u1="x" u2="&#x201c;" k="4" />
    <hkern u1="x" u2="&#x2019;" k="4" />
    <hkern u1="x" u2="&#x2018;" k="4" />
    <hkern u1="x" u2="s" k="16" />
    <hkern u1="x" u2="q" k="31" />
    <hkern u1="x" u2="o" k="31" />
    <hkern u1="x" u2="g" k="31" />
    <hkern u1="x" u2="c" k="31" />
    <hkern u1="x" u2="S" k="16" />
    <hkern u1="x" u2="Q" k="31" />
    <hkern u1="x" u2="O" k="31" />
    <hkern u1="x" u2="G" k="31" />
    <hkern u1="x" u2="C" k="31" />
    <hkern u1="x" u2="&#x2d;" k="31" />
    <hkern u1="y" u2="&#x2026;" k="164" />
    <hkern u1="y" u2="&#x201e;" k="164" />
    <hkern u1="y" u2="&#x201a;" k="164" />
    <hkern u1="y" u2="&#x7d;" k="-10" />
    <hkern u1="y" u2="q" k="31" />
    <hkern u1="y" u2="]" k="-10" />
    <hkern u1="y" u2="Q" k="31" />
    <hkern u1="y" u2="&#x3b;" k="41" />
    <hkern u1="y" u2="&#x3a;" k="41" />
    <hkern u1="y" u2="&#x2e;" k="164" />
    <hkern u1="y" u2="&#x2c;" k="164" />
    <hkern u1="y" u2="&#x29;" k="-10" />
    <hkern u1="&#x7b;" u2="y" k="-10" />
    <hkern u1="&#x7b;" u2="w" k="-6" />
    <hkern u1="&#x7b;" u2="v" k="-6" />
    <hkern u1="&#x7b;" u2="t" k="-16" />
    <hkern u1="&#x7b;" u2="Y" k="-10" />
    <hkern u1="&#x7b;" u2="W" k="-6" />
    <hkern u1="&#x7b;" u2="V" k="-6" />
    <hkern u1="&#x7b;" u2="T" k="-16" />
    <hkern u1="&#x2018;" u2="z" k="8" />
    <hkern u1="&#x2018;" u2="x" k="4" />
    <hkern u1="&#x2018;" u2="s" k="10" />
    <hkern u1="&#x2018;" u2="q" k="20" />
    <hkern u1="&#x2018;" u2="o" k="20" />
    <hkern u1="&#x2018;" u2="j" k="82" />
    <hkern u1="&#x2018;" u2="g" k="20" />
    <hkern u1="&#x2018;" u2="c" k="20" />
    <hkern u1="&#x2018;" u2="a" k="123" />
    <hkern u1="&#x2018;" u2="Z" k="8" />
    <hkern u1="&#x2018;" u2="X" k="4" />
    <hkern u1="&#x2018;" u2="S" k="10" />
    <hkern u1="&#x2018;" u2="Q" k="20" />
    <hkern u1="&#x2018;" u2="O" k="20" />
    <hkern u1="&#x2018;" u2="J" k="82" />
    <hkern u1="&#x2018;" u2="G" k="20" />
    <hkern u1="&#x2018;" u2="C" k="20" />
    <hkern u1="&#x2018;" u2="A" k="123" />
    <hkern u1="&#x2019;" u2="x" k="4" />
    <hkern u1="&#x2019;" u2="q" k="20" />
    <hkern u1="&#x2019;" u2="X" k="4" />
    <hkern u1="&#x2019;" u2="Q" k="20" />
    <hkern u1="&#x201a;" u2="y" k="164" />
    <hkern u1="&#x201a;" u2="w" k="82" />
    <hkern u1="&#x201a;" u2="v" k="123" />
    <hkern u1="&#x201a;" u2="u" k="12" />
    <hkern u1="&#x201a;" u2="t" k="123" />
    <hkern u1="&#x201a;" u2="s" k="10" />
    <hkern u1="&#x201a;" u2="q" k="20" />
    <hkern u1="&#x201a;" u2="o" k="20" />
    <hkern u1="&#x201a;" u2="g" k="20" />
    <hkern u1="&#x201a;" u2="c" k="20" />
    <hkern u1="&#x201a;" u2="Y" k="164" />
    <hkern u1="&#x201a;" u2="W" k="82" />
    <hkern u1="&#x201a;" u2="V" k="123" />
    <hkern u1="&#x201a;" u2="U" k="12" />
    <hkern u1="&#x201a;" u2="T" k="123" />
    <hkern u1="&#x201a;" u2="S" k="10" />
    <hkern u1="&#x201a;" u2="Q" k="20" />
    <hkern u1="&#x201a;" u2="O" k="20" />
    <hkern u1="&#x201a;" u2="G" k="20" />
    <hkern u1="&#x201a;" u2="C" k="20" />
    <hkern u1="&#x201c;" u2="z" k="8" />
    <hkern u1="&#x201c;" u2="x" k="4" />
    <hkern u1="&#x201c;" u2="s" k="10" />
    <hkern u1="&#x201c;" u2="q" k="20" />
    <hkern u1="&#x201c;" u2="o" k="20" />
    <hkern u1="&#x201c;" u2="j" k="82" />
    <hkern u1="&#x201c;" u2="g" k="20" />
    <hkern u1="&#x201c;" u2="c" k="20" />
    <hkern u1="&#x201c;" u2="a" k="123" />
    <hkern u1="&#x201c;" u2="Z" k="8" />
    <hkern u1="&#x201c;" u2="X" k="4" />
    <hkern u1="&#x201c;" u2="S" k="10" />
    <hkern u1="&#x201c;" u2="Q" k="20" />
    <hkern u1="&#x201c;" u2="O" k="20" />
    <hkern u1="&#x201c;" u2="J" k="82" />
    <hkern u1="&#x201c;" u2="G" k="20" />
    <hkern u1="&#x201c;" u2="C" k="20" />
    <hkern u1="&#x201c;" u2="A" k="123" />
    <hkern u1="&#x201d;" u2="z" k="8" />
    <hkern u1="&#x201d;" u2="x" k="4" />
    <hkern u1="&#x201d;" u2="s" k="10" />
    <hkern u1="&#x201d;" u2="q" k="20" />
    <hkern u1="&#x201d;" u2="o" k="20" />
    <hkern u1="&#x201d;" u2="j" k="82" />
    <hkern u1="&#x201d;" u2="g" k="20" />
    <hkern u1="&#x201d;" u2="c" k="20" />
    <hkern u1="&#x201d;" u2="a" k="123" />
    <hkern u1="&#x201d;" u2="Z" k="8" />
    <hkern u1="&#x201d;" u2="X" k="4" />
    <hkern u1="&#x201d;" u2="S" k="10" />
    <hkern u1="&#x201d;" u2="Q" k="20" />
    <hkern u1="&#x201d;" u2="O" k="20" />
    <hkern u1="&#x201d;" u2="J" k="82" />
    <hkern u1="&#x201d;" u2="G" k="20" />
    <hkern u1="&#x201d;" u2="C" k="20" />
    <hkern u1="&#x201d;" u2="A" k="123" />
    <hkern u1="&#x201e;" u2="y" k="164" />
    <hkern u1="&#x201e;" u2="w" k="82" />
    <hkern u1="&#x201e;" u2="v" k="123" />
    <hkern u1="&#x201e;" u2="u" k="12" />
    <hkern u1="&#x201e;" u2="t" k="123" />
    <hkern u1="&#x201e;" u2="s" k="10" />
    <hkern u1="&#x201e;" u2="q" k="20" />
    <hkern u1="&#x201e;" u2="o" k="20" />
    <hkern u1="&#x201e;" u2="g" k="20" />
    <hkern u1="&#x201e;" u2="c" k="20" />
    <hkern u1="&#x201e;" u2="Y" k="164" />
    <hkern u1="&#x201e;" u2="W" k="82" />
    <hkern u1="&#x201e;" u2="V" k="123" />
    <hkern u1="&#x201e;" u2="U" k="12" />
    <hkern u1="&#x201e;" u2="T" k="123" />
    <hkern u1="&#x201e;" u2="S" k="10" />
    <hkern u1="&#x201e;" u2="Q" k="20" />
    <hkern u1="&#x201e;" u2="O" k="20" />
    <hkern u1="&#x201e;" u2="G" k="20" />
    <hkern u1="&#x201e;" u2="C" k="20" />
    <hkern u1="&#x2026;" u2="y" k="164" />
    <hkern u1="&#x2026;" u2="w" k="82" />
    <hkern u1="&#x2026;" u2="v" k="123" />
    <hkern u1="&#x2026;" u2="u" k="12" />
    <hkern u1="&#x2026;" u2="t" k="123" />
    <hkern u1="&#x2026;" u2="s" k="10" />
    <hkern u1="&#x2026;" u2="q" k="20" />
    <hkern u1="&#x2026;" u2="o" k="20" />
    <hkern u1="&#x2026;" u2="g" k="20" />
    <hkern u1="&#x2026;" u2="c" k="20" />
    <hkern u1="&#x2026;" u2="Y" k="164" />
    <hkern u1="&#x2026;" u2="W" k="82" />
    <hkern u1="&#x2026;" u2="V" k="123" />
    <hkern u1="&#x2026;" u2="U" k="12" />
    <hkern u1="&#x2026;" u2="T" k="123" />
    <hkern u1="&#x2026;" u2="S" k="10" />
    <hkern u1="&#x2026;" u2="Q" k="20" />
    <hkern u1="&#x2026;" u2="O" k="20" />
    <hkern u1="&#x2026;" u2="G" k="20" />
    <hkern u1="&#x2026;" u2="C" k="20" />
    <hkern g1="hyphen"
	g2="A"
	k="20" />
    <hkern g1="hyphen"
	g2="T"
	k="66" />
    <hkern g1="hyphen"
	g2="W"
	k="8" />
    <hkern g1="hyphen"
	g2="Y"
	k="37" />
    <hkern g1="hyphen"
	g2="Z"
	k="20" />
    <hkern g1="hyphen"
	g2="a"
	k="20" />
    <hkern g1="hyphen"
	g2="t"
	k="66" />
    <hkern g1="hyphen"
	g2="w"
	k="8" />
    <hkern g1="hyphen"
	g2="y"
	k="37" />
    <hkern g1="hyphen"
	g2="z"
	k="20" />
    <hkern g1="B"
	g2="W"
	k="2" />
    <hkern g1="B"
	g2="Y"
	k="31" />
    <hkern g1="B"
	g2="w"
	k="2" />
    <hkern g1="B"
	g2="y"
	k="31" />
    <hkern g1="B"
	g2="quoteright"
	k="20" />
    <hkern g1="C"
	g2="Y"
	k="23" />
    <hkern g1="C"
	g2="y"
	k="23" />
    <hkern g1="C"
	g2="quoteright"
	k="12" />
    <hkern g1="D"
	g2="A"
	k="2" />
    <hkern g1="D"
	g2="Y"
	k="31" />
    <hkern g1="D"
	g2="a"
	k="2" />
    <hkern g1="D"
	g2="y"
	k="31" />
    <hkern g1="D"
	g2="quoteright"
	k="20" />
    <hkern g1="F"
	g2="A"
	k="27" />
    <hkern g1="F"
	g2="Z"
	k="20" />
    <hkern g1="F"
	g2="a"
	k="27" />
    <hkern g1="F"
	g2="z"
	k="20" />
    <hkern g1="F"
	g2="J"
	k="41" />
    <hkern g1="F"
	g2="j"
	k="41" />
    <hkern g1="G"
	g2="A"
	k="2" />
    <hkern g1="G"
	g2="Y"
	k="31" />
    <hkern g1="G"
	g2="a"
	k="2" />
    <hkern g1="G"
	g2="y"
	k="31" />
    <hkern g1="G"
	g2="quoteright"
	k="20" />
    <hkern g1="K"
	g2="C"
	k="14" />
    <hkern g1="K"
	g2="G"
	k="14" />
    <hkern g1="K"
	g2="O"
	k="14" />
    <hkern g1="K"
	g2="S"
	k="10" />
    <hkern g1="K"
	g2="U"
	k="8" />
    <hkern g1="K"
	g2="c"
	k="14" />
    <hkern g1="K"
	g2="g"
	k="14" />
    <hkern g1="K"
	g2="o"
	k="14" />
    <hkern g1="K"
	g2="s"
	k="10" />
    <hkern g1="K"
	g2="u"
	k="8" />
    <hkern g1="L"
	g2="T"
	k="102" />
    <hkern g1="L"
	g2="W"
	k="35" />
    <hkern g1="L"
	g2="Y"
	k="127" />
    <hkern g1="L"
	g2="t"
	k="102" />
    <hkern g1="L"
	g2="w"
	k="35" />
    <hkern g1="L"
	g2="y"
	k="127" />
    <hkern g1="L"
	g2="quoteright"
	k="154" />
    <hkern g1="L"
	g2="J"
	k="-10" />
    <hkern g1="L"
	g2="j"
	k="-10" />
    <hkern g1="L"
	g2="hyphen"
	k="82" />
    <hkern g1="O"
	g2="A"
	k="2" />
    <hkern g1="O"
	g2="Y"
	k="31" />
    <hkern g1="O"
	g2="a"
	k="2" />
    <hkern g1="O"
	g2="y"
	k="31" />
    <hkern g1="O"
	g2="quoteright"
	k="20" />
    <hkern g1="P"
	g2="A"
	k="27" />
    <hkern g1="P"
	g2="Y"
	k="4" />
    <hkern g1="P"
	g2="a"
	k="27" />
    <hkern g1="P"
	g2="y"
	k="4" />
    <hkern g1="P"
	g2="J"
	k="37" />
    <hkern g1="P"
	g2="j"
	k="37" />
    <hkern g1="R"
	g2="Y"
	k="20" />
    <hkern g1="R"
	g2="y"
	k="20" />
    <hkern g1="S"
	g2="Y"
	k="14" />
    <hkern g1="S"
	g2="y"
	k="14" />
    <hkern g1="S"
	g2="quoteright"
	k="10" />
    <hkern g1="T"
	g2="A"
	k="78" />
    <hkern g1="T"
	g2="a"
	k="78" />
    <hkern g1="T"
	g2="J"
	k="61" />
    <hkern g1="T"
	g2="j"
	k="61" />
    <hkern g1="T"
	g2="hyphen"
	k="66" />
    <hkern g1="W"
	g2="A"
	k="31" />
    <hkern g1="W"
	g2="a"
	k="31" />
    <hkern g1="W"
	g2="J"
	k="27" />
    <hkern g1="W"
	g2="j"
	k="27" />
    <hkern g1="W"
	g2="hyphen"
	k="8" />
    <hkern g1="Y"
	g2="A"
	k="100" />
    <hkern g1="Y"
	g2="a"
	k="100" />
    <hkern g1="Y"
	g2="J"
	k="72" />
    <hkern g1="Y"
	g2="j"
	k="72" />
    <hkern g1="Y"
	g2="C"
	k="31" />
    <hkern g1="Y"
	g2="G"
	k="31" />
    <hkern g1="Y"
	g2="O"
	k="31" />
    <hkern g1="Y"
	g2="S"
	k="14" />
    <hkern g1="Y"
	g2="c"
	k="31" />
    <hkern g1="Y"
	g2="g"
	k="31" />
    <hkern g1="Y"
	g2="o"
	k="31" />
    <hkern g1="Y"
	g2="s"
	k="14" />
    <hkern g1="Y"
	g2="hyphen"
	k="37" />
    <hkern g1="Z"
	g2="hyphen"
	k="31" />
    <hkern g1="a"
	g2="T"
	k="78" />
    <hkern g1="a"
	g2="W"
	k="31" />
    <hkern g1="a"
	g2="Y"
	k="100" />
    <hkern g1="a"
	g2="t"
	k="78" />
    <hkern g1="a"
	g2="w"
	k="31" />
    <hkern g1="a"
	g2="y"
	k="100" />
    <hkern g1="a"
	g2="quoteright"
	k="123" />
    <hkern g1="a"
	g2="C"
	k="2" />
    <hkern g1="a"
	g2="G"
	k="2" />
    <hkern g1="a"
	g2="O"
	k="2" />
    <hkern g1="a"
	g2="c"
	k="2" />
    <hkern g1="a"
	g2="g"
	k="2" />
    <hkern g1="a"
	g2="o"
	k="2" />
    <hkern g1="a"
	g2="hyphen"
	k="20" />
    <hkern g1="b"
	g2="W"
	k="2" />
    <hkern g1="b"
	g2="Y"
	k="31" />
    <hkern g1="b"
	g2="w"
	k="2" />
    <hkern g1="b"
	g2="y"
	k="31" />
    <hkern g1="b"
	g2="quoteright"
	k="20" />
    <hkern g1="c"
	g2="Y"
	k="23" />
    <hkern g1="c"
	g2="y"
	k="23" />
    <hkern g1="c"
	g2="quoteright"
	k="12" />
    <hkern g1="d"
	g2="A"
	k="2" />
    <hkern g1="d"
	g2="Y"
	k="31" />
    <hkern g1="d"
	g2="a"
	k="2" />
    <hkern g1="d"
	g2="y"
	k="31" />
    <hkern g1="d"
	g2="quoteright"
	k="20" />
    <hkern g1="f"
	g2="A"
	k="27" />
    <hkern g1="f"
	g2="Z"
	k="20" />
    <hkern g1="f"
	g2="a"
	k="27" />
    <hkern g1="f"
	g2="z"
	k="20" />
    <hkern g1="f"
	g2="J"
	k="41" />
    <hkern g1="f"
	g2="j"
	k="41" />
    <hkern g1="g"
	g2="A"
	k="2" />
    <hkern g1="g"
	g2="Y"
	k="31" />
    <hkern g1="g"
	g2="a"
	k="2" />
    <hkern g1="g"
	g2="y"
	k="31" />
    <hkern g1="g"
	g2="quoteright"
	k="20" />
    <hkern g1="k"
	g2="C"
	k="14" />
    <hkern g1="k"
	g2="G"
	k="14" />
    <hkern g1="k"
	g2="O"
	k="14" />
    <hkern g1="k"
	g2="S"
	k="10" />
    <hkern g1="k"
	g2="U"
	k="8" />
    <hkern g1="k"
	g2="c"
	k="14" />
    <hkern g1="k"
	g2="g"
	k="14" />
    <hkern g1="k"
	g2="o"
	k="14" />
    <hkern g1="k"
	g2="s"
	k="10" />
    <hkern g1="k"
	g2="u"
	k="8" />
    <hkern g1="l"
	g2="T"
	k="102" />
    <hkern g1="l"
	g2="W"
	k="35" />
    <hkern g1="l"
	g2="Y"
	k="127" />
    <hkern g1="l"
	g2="t"
	k="102" />
    <hkern g1="l"
	g2="w"
	k="35" />
    <hkern g1="l"
	g2="y"
	k="127" />
    <hkern g1="l"
	g2="quoteright"
	k="154" />
    <hkern g1="l"
	g2="J"
	k="-10" />
    <hkern g1="l"
	g2="j"
	k="-10" />
    <hkern g1="l"
	g2="hyphen"
	k="82" />
    <hkern g1="o"
	g2="A"
	k="2" />
    <hkern g1="o"
	g2="Y"
	k="31" />
    <hkern g1="o"
	g2="a"
	k="2" />
    <hkern g1="o"
	g2="y"
	k="31" />
    <hkern g1="o"
	g2="quoteright"
	k="20" />
    <hkern g1="p"
	g2="A"
	k="27" />
    <hkern g1="p"
	g2="Y"
	k="4" />
    <hkern g1="p"
	g2="a"
	k="27" />
    <hkern g1="p"
	g2="y"
	k="4" />
    <hkern g1="p"
	g2="J"
	k="37" />
    <hkern g1="p"
	g2="j"
	k="37" />
    <hkern g1="r"
	g2="Y"
	k="20" />
    <hkern g1="r"
	g2="y"
	k="20" />
    <hkern g1="s"
	g2="Y"
	k="14" />
    <hkern g1="s"
	g2="y"
	k="14" />
    <hkern g1="s"
	g2="quoteright"
	k="10" />
    <hkern g1="t"
	g2="A"
	k="78" />
    <hkern g1="t"
	g2="a"
	k="78" />
    <hkern g1="t"
	g2="J"
	k="61" />
    <hkern g1="t"
	g2="j"
	k="61" />
    <hkern g1="t"
	g2="hyphen"
	k="66" />
    <hkern g1="w"
	g2="A"
	k="31" />
    <hkern g1="w"
	g2="a"
	k="31" />
    <hkern g1="w"
	g2="J"
	k="27" />
    <hkern g1="w"
	g2="j"
	k="27" />
    <hkern g1="w"
	g2="hyphen"
	k="8" />
    <hkern g1="y"
	g2="A"
	k="100" />
    <hkern g1="y"
	g2="a"
	k="100" />
    <hkern g1="y"
	g2="J"
	k="72" />
    <hkern g1="y"
	g2="j"
	k="72" />
    <hkern g1="y"
	g2="C"
	k="31" />
    <hkern g1="y"
	g2="G"
	k="31" />
    <hkern g1="y"
	g2="O"
	k="31" />
    <hkern g1="y"
	g2="S"
	k="14" />
    <hkern g1="y"
	g2="c"
	k="31" />
    <hkern g1="y"
	g2="g"
	k="31" />
    <hkern g1="y"
	g2="o"
	k="31" />
    <hkern g1="y"
	g2="s"
	k="14" />
    <hkern g1="y"
	g2="hyphen"
	k="37" />
    <hkern g1="z"
	g2="hyphen"
	k="31" />
    <hkern g1="quoteright"
	g2="A"
	k="123" />
    <hkern g1="quoteright"
	g2="Z"
	k="8" />
    <hkern g1="quoteright"
	g2="a"
	k="123" />
    <hkern g1="quoteright"
	g2="z"
	k="8" />
    <hkern g1="quoteright"
	g2="J"
	k="82" />
    <hkern g1="quoteright"
	g2="j"
	k="82" />
    <hkern g1="quoteright"
	g2="C"
	k="20" />
    <hkern g1="quoteright"
	g2="G"
	k="20" />
    <hkern g1="quoteright"
	g2="O"
	k="20" />
    <hkern g1="quoteright"
	g2="S"
	k="10" />
    <hkern g1="quoteright"
	g2="c"
	k="20" />
    <hkern g1="quoteright"
	g2="g"
	k="20" />
    <hkern g1="quoteright"
	g2="o"
	k="20" />
    <hkern g1="quoteright"
	g2="s"
	k="10" />
  </font>
</defs></svg>
