<?xml version="1.0" encoding="UTF-8"?>
<svg width="100%" height="100%" viewBox="0 0 28 35" version="1.1" xmlns="http://www.w3.org/2000/svg" xmlns:xlink="http://www.w3.org/1999/xlink">
    <!-- Generator: Sketch 41.2 (35397) - http://www.bohemiancoding.com/sketch -->
    <title>Shape</title>
    <desc>Created with Sketch.</desc>
    <defs></defs>
    <g id="Page-1" stroke="none" stroke-width="1" fill="none" fill-rule="evenodd">
        <g id="Graduate-Program" transform="translate(-1466.000000, -304.000000)" fill="#C70E20">
            <g id="Group-4" transform="translate(1440.000000, 281.000000)">
                <path d="M48.75,26.5 L48.75,23 L31.25,23 L31.25,26.5 L26,26.5 L26,58 L36.5,58 L36.5,54.5 L43.5,54.5 L43.5,58 L54,58 L54,26.5 L48.75,26.5 L48.75,26.5 Z M38.25,49.25 L34.75,49.25 L34.75,45.75 L38.25,45.75 L38.25,49.25 L38.25,49.25 Z M38.25,42.25 L34.75,42.25 L34.75,38.75 L38.25,38.75 L38.25,42.25 L38.25,42.25 Z M38.25,35.25 L34.75,35.25 L34.75,31.75 L38.25,31.75 L38.25,35.25 L38.25,35.25 Z M45.25,49.25 L41.75,49.25 L41.75,45.75 L45.25,45.75 L45.25,49.25 L45.25,49.25 Z M45.25,42.25 L41.75,42.25 L41.75,38.75 L45.25,38.75 L45.25,42.25 L45.25,42.25 Z M45.25,35.25 L41.75,35.25 L41.75,31.75 L45.25,31.75 L45.25,35.25 L45.25,35.25 Z" id="Shape"></path>
            </g>
        </g>
    </g>
</svg>
