<?xml version="1.0" encoding="UTF-8"?>
<svg width="100%" height="100%" viewBox="0 0 80 80" version="1.1" xmlns="http://www.w3.org/2000/svg" xmlns:xlink="http://www.w3.org/1999/xlink">
    <!-- Generator: Sketch 41.2 (35397) - http://www.bohemiancoding.com/sketch -->
    <title>Fill 1 Copy</title>
    <desc>Created with Sketch.</desc>
    <defs></defs>
    <g id="Page-1" stroke="none" stroke-width="1" fill="none" fill-rule="evenodd">
        <g id="Center-for-Graduate-Studies" transform="translate(-1301.000000, -281.000000)" fill="#C70D1F">
            <g id="//-HEADER">
                <path d="M1367.99055,284.955704 C1372.73422,284.955704 1376.59341,288.814892 1376.59341,293.558567 C1376.59341,298.302242 1372.73422,302.16287 1367.99055,302.16287 C1363.24687,302.16287 1359.38768,298.302242 1359.38768,293.558567 C1359.38768,288.814892 1363.24687,284.955704 1367.99055,284.955704 L1367.99055,284.955704 Z M1367.99055,303.237508 C1373.32772,303.237508 1377.66949,298.895741 1377.66949,293.558567 C1377.66949,288.222832 1373.32772,283.881066 1367.99055,283.881066 C1362.65337,283.881066 1358.31161,288.222832 1358.31161,293.558567 C1358.31161,298.895741 1362.65337,303.237508 1367.99055,303.237508 L1367.99055,303.237508 Z M1376.47096,302.543171 C1375.9783,303.008463 1375.45539,303.442064 1374.8907,303.822364 C1377.51823,308.985235 1379.01062,314.819393 1379.01062,320.99928 C1379.01062,341.959035 1361.95903,359.009183 1341.00072,359.009183 C1320.04241,359.009183 1302.99082,341.959035 1302.99082,320.99928 C1302.99082,300.039525 1320.04241,282.989376 1341.00072,282.989376 C1346.95876,282.989376 1352.59989,284.370847 1357.62591,286.825515 C1357.99469,286.257945 1358.41388,285.726389 1358.87053,285.227964 C1353.4887,282.528406 1347.42118,281 1341.00072,281 C1318.94472,281 1301,298.943279 1301,320.99928 C1301,343.05528 1318.94472,361 1341.00072,361 C1363.05672,361 1381,343.05528 1381,320.99928 C1381,314.345458 1379.35923,308.070496 1376.47096,302.543171 L1376.47096,302.543171 Z M1345.52976,330.812191 L1349.30251,330.812191 L1349.30251,327.037994 L1345.52976,327.037994 L1345.52976,330.812191 Z M1344.77492,332.321869 L1350.05879,332.321869 C1350.47511,332.321869 1350.81219,331.983344 1350.81219,331.56703 L1350.81219,326.283155 C1350.81219,325.866841 1350.47511,325.528315 1350.05879,325.528315 L1344.77492,325.528315 C1344.35716,325.528315 1344.01864,325.866841 1344.01864,326.283155 L1344.01864,331.56703 C1344.01864,331.983344 1344.35716,332.321869 1344.77492,332.321869 L1344.77492,332.321869 Z M1332.69749,330.812191 L1336.47168,330.812191 L1336.47168,327.037994 L1332.69749,327.037994 L1332.69749,330.812191 Z M1331.94409,332.321869 L1337.22652,332.321869 C1337.64428,332.321869 1337.98136,331.983344 1337.98136,331.56703 L1337.98136,326.283155 C1337.98136,325.866841 1337.64428,325.528315 1337.22652,325.528315 L1331.94409,325.528315 C1331.52489,325.528315 1331.18781,325.866841 1331.18781,326.283155 L1331.18781,331.56703 C1331.18781,331.983344 1331.52489,332.321869 1331.94409,332.321869 L1331.94409,332.321869 Z M1332.69749,321.75556 L1336.47168,321.75556 L1336.47168,317.981363 L1332.69749,317.981363 L1332.69749,321.75556 Z M1331.94409,323.263798 L1337.22652,323.263798 C1337.64428,323.263798 1337.98136,322.926713 1337.98136,322.508958 L1337.98136,317.225083 C1337.98136,316.808769 1337.64428,316.470244 1337.22652,316.470244 L1331.94409,316.470244 C1331.52489,316.470244 1331.18781,316.808769 1331.18781,317.225083 L1331.18781,322.508958 C1331.18781,322.926713 1331.52489,323.263798 1331.94409,323.263798 L1331.94409,323.263798 Z M1341.75556,334.584946 L1353.07671,334.584946 L1353.07671,314.205726 L1341.75556,314.205726 L1341.75556,334.584946 Z M1328.92473,334.584946 L1340.24588,334.584946 L1340.24588,314.205726 L1328.92473,314.205726 L1328.92473,334.584946 Z M1327.41505,311.473035 C1327.41505,311.16188 1327.60953,310.878095 1327.92644,310.75709 L1341.00072,305.213919 L1354.09949,310.767174 C1354.39192,310.878095 1354.58639,311.16188 1354.58639,311.473035 L1354.58639,312.697488 L1327.41505,312.697488 L1327.41505,311.473035 Z M1356.85235,334.584946 L1354.58639,334.584946 L1354.58639,314.205726 L1355.34267,314.205726 C1355.75898,314.205726 1356.09607,313.868641 1356.09607,313.450887 L1356.09607,311.473035 C1356.09607,310.53957 1355.51121,309.689655 1354.66418,309.366976 L1341.29603,303.698478 C1341.10732,303.619249 1340.89412,303.619249 1340.70685,303.698478 L1327.36319,309.356892 C1326.49023,309.688215 1325.90393,310.53957 1325.90393,311.473035 L1325.90393,313.450887 C1325.90393,313.868641 1326.24102,314.205726 1326.66021,314.205726 L1327.41505,314.205726 L1327.41505,334.584946 L1325.15054,334.584946 C1324.73278,334.584946 1324.39426,334.923472 1324.39426,335.341226 L1324.39426,337.605744 C1324.39426,338.022058 1324.73278,338.360583 1325.15054,338.360583 L1356.85235,338.360583 C1357.26866,338.360583 1357.60574,338.022058 1357.60574,337.605744 L1357.60574,335.341226 C1357.60574,334.923472 1357.26866,334.584946 1356.85235,334.584946 L1356.85235,334.584946 Z M1345.52976,321.75556 L1349.30251,321.75556 L1349.30251,317.981363 L1345.52976,317.981363 L1345.52976,321.75556 Z M1344.77492,323.263798 L1350.05879,323.263798 C1350.47511,323.263798 1350.81219,322.926713 1350.81219,322.508958 L1350.81219,317.225083 C1350.81219,316.808769 1350.47511,316.470244 1350.05879,316.470244 L1344.77492,316.470244 C1344.35716,316.470244 1344.01864,316.808769 1344.01864,317.225083 L1344.01864,322.508958 C1344.01864,322.926713 1344.35716,323.263798 1344.77492,323.263798 L1344.77492,323.263798 Z" id="Fill-1-Copy"></path>
            </g>
        </g>
    </g>
</svg>
