<?xml version="1.0" encoding="UTF-8"?>
<svg width="17px" height="19px" viewBox="0 0 17 19" version="1.1" xmlns="http://www.w3.org/2000/svg" xmlns:xlink="http://www.w3.org/1999/xlink">
    <!-- Generator: Sketch 41.2 (35397) - http://www.bohemiancoding.com/sketch -->
    <title>schedule</title>
    <desc>Created with Sketch.</desc>
    <defs></defs>
    <g id="Mobile" stroke="none" stroke-width="1" fill="none" fill-rule="evenodd">
        <g id="Campus-Mobile" transform="translate(-36.000000, -8707.000000)" fill="#505258">
            <g id="Event-Item" transform="translate(20.000000, 8415.000000)">
                <g id="schedule" transform="translate(16.011905, 292.761488)">
                    <path d="M8.47689076,0 C3.81460084,0 0,4.00568928 0,8.90153173 C0,13.7973742 3.81460084,17.8030635 8.47689076,17.8030635 C13.1391807,17.8030635 16.9537815,13.7973742 16.9537815,8.90153173 C16.9537815,4.00568928 13.1391807,0 8.47689076,0 L8.47689076,0 Z M8.47689076,16.0227571 C4.74705882,16.0227571 1.69537815,12.8182057 1.69537815,8.90153173 C1.69537815,4.98485777 4.74705882,1.78030635 8.47689076,1.78030635 C12.2067227,1.78030635 15.2584034,4.98485777 15.2584034,8.90153173 C15.2584034,12.8182057 12.2067227,16.0227571 8.47689076,16.0227571 L8.47689076,16.0227571 Z" id="Shape"></path>
                    <polygon id="Shape" points="8.90073529 4.45076586 7.62920168 4.45076586 7.62920168 9.7916849 12.0371849 12.6401751 12.7153361 11.4829759 8.90073529 9.07956236"></polygon>
                </g>
            </g>
        </g>
    </g>
</svg>