<?xml version="1.0" encoding="UTF-8"?>
<svg width="20px" height="14px" viewBox="0 0 20 14" version="1.1" xmlns="http://www.w3.org/2000/svg" xmlns:xlink="http://www.w3.org/1999/xlink">
    <!-- Generator: Sketch 41.2 (35397) - http://www.bohemiancoding.com/sketch -->
    <title>Hamburger</title>
    <desc>Created with Sketch.</desc>
    <defs></defs>
    <g id="Symbols" stroke="none" stroke-width="1" fill="none" fill-rule="evenodd">
        <g id="Mobile-Menu" transform="translate(0.000000, -5.000000)" fill="#EF0030">
            <g id="Hamburger">
                <path d="M0,5 L20,5 L20,6.93236715 L0,6.93236715 L0,5 Z M0,10.7971014 L20,10.7971014 L20,12.7294686 L0,12.7294686 L0,10.7971014 Z M0,16.5942029 L20,16.5942029 L20,18.52657 L0,18.52657 L0,16.5942029 Z"></path>
            </g>
        </g>
    </g>
</svg>