<?xml version="1.0" encoding="UTF-8"?>
<svg width="16px" height="20px" viewBox="0 0 16 20" version="1.1" xmlns="http://www.w3.org/2000/svg" xmlns:xlink="http://www.w3.org/1999/xlink">
    <!-- Generator: Sketch 41.2 (35397) - http://www.bohemiancoding.com/sketch -->
    <title>Shape</title>
    <desc>Created with Sketch.</desc>
    <defs></defs>
    <g id="Page-1" stroke="none" stroke-width="1" fill="none" fill-rule="evenodd">
        <g id="College-Of" transform="translate(-1615.000000, -2323.000000)" fill="#000000">
            <g id="//-OPEN-POSITIONS" transform="translate(0.000000, 1990.000000)">
                <g id="Undergrad" transform="translate(250.000000, 110.000000)">
                    <g id="Group-3" transform="translate(1.000000, 191.000000)">
                        <g id="Group-2">
                            <path d="M1377,34 L1377,32 L1367,32 L1367,34 L1364,34 L1364,52 L1370,52 L1370,50 L1374,50 L1374,52 L1380,52 L1380,34 L1377,34 L1377,34 Z M1371,47 L1369,47 L1369,45 L1371,45 L1371,47 L1371,47 Z M1371,43 L1369,43 L1369,41 L1371,41 L1371,43 L1371,43 Z M1371,39 L1369,39 L1369,37 L1371,37 L1371,39 L1371,39 Z M1375,47 L1373,47 L1373,45 L1375,45 L1375,47 L1375,47 Z M1375,43 L1373,43 L1373,41 L1375,41 L1375,43 L1375,43 Z M1375,39 L1373,39 L1373,37 L1375,37 L1375,39 L1375,39 Z" id="Shape"></path>
                        </g>
                    </g>
                </g>
            </g>
        </g>
    </g>
</svg>