<?xml version="1.0" encoding="UTF-8"?>
<svg width="16px" height="20px" viewBox="0 0 16 20" version="1.1" xmlns="http://www.w3.org/2000/svg" xmlns:xlink="http://www.w3.org/1999/xlink">
    <!-- Generator: Sketch 41.2 (35397) - http://www.bohemiancoding.com/sketch -->
    <title>Shape</title>
    <desc>Created with Sketch.</desc>
    <defs></defs>
    <g id="Mobile" stroke="none" stroke-width="1" fill="none" fill-rule="evenodd">
        <g id="College-Of-Mobile" transform="translate(-20.000000, -292.000000)" fill="#FFFFFF">
            <g id="Group-5" transform="translate(20.000000, 290.000000)">
                <path d="M13,4 L13,2 L3,2 L3,4 L0,4 L0,22 L6,22 L6,20 L10,20 L10,22 L16,22 L16,4 L13,4 L13,4 Z M7,17 L5,17 L5,15 L7,15 L7,17 L7,17 Z M7,13 L5,13 L5,11 L7,11 L7,13 L7,13 Z M7,9 L5,9 L5,7 L7,7 L7,9 L7,9 Z M11,17 L9,17 L9,15 L11,15 L11,17 L11,17 Z M11,13 L9,13 L9,11 L11,11 L11,13 L11,13 Z M11,9 L9,9 L9,7 L11,7 L11,9 L11,9 Z" id="Shape"></path>
            </g>
        </g>
    </g>
</svg>