<?xml version="1.0" encoding="UTF-8"?>
<svg width="126px" height="126px" viewBox="0 0 126 126" version="1.1" xmlns="http://www.w3.org/2000/svg" xmlns:xlink="http://www.w3.org/1999/xlink">
    <!-- Generator: Sketch 42 (36781) - http://www.bohemiancoding.com/sketch -->
    <title>testimonial-slider-icon</title>
    <desc>Created with Sketch.</desc>
    <defs>
        <circle id="path-1" cx="34" cy="34" r="34"></circle>
        <filter x="-50%" y="-50%" width="200%" height="200%" filterUnits="objectBoundingBox" id="filter-2">
            <feOffset dx="0" dy="8" in="SourceAlpha" result="shadowOffsetOuter1"></feOffset>
            <feGaussianBlur stdDeviation="15" in="shadowOffsetOuter1" result="shadowBlurOuter1"></feGaussianBlur>
            <feColorMatrix values="0 0 0 0 0   0 0 0 0 0   0 0 0 0 0  0 0 0 0.318982111 0" type="matrix" in="shadowBlurOuter1"></feColorMatrix>
        </filter>
    </defs>
    <g id="Page-1" stroke="none" stroke-width="1" fill="none" fill-rule="evenodd">
        <g id="Index" transform="translate(-897.000000, -2158.000000)">
            <g id="//-FEATURED" transform="translate(252.000000, 1486.000000)">
                <g id="testimonial-slider-icon" transform="translate(708.000000, 727.000000) scale(-1, 1) translate(-708.000000, -727.000000) translate(674.000000, 693.000000)">
                    <g id="Oval">
                        <use fill="black" fill-opacity="1" filter="url(#filter-2)" xlink:href="#path-1"></use>
                        <use fill="#FFFFFF" fill-rule="evenodd" xlink:href="#path-1"></use>
                    </g>
                    <path d="M30.66,46 C30.3719986,46 30.132001,45.898001 29.94,45.694 C29.747999,45.489999 29.652,45.2500014 29.652,44.974 C29.652,44.6979986 29.7359992,44.464001 29.904,44.272 L40.632,33.472 L29.904,22.708 C29.7359992,22.4919989 29.652,22.2400014 29.652,21.952 C29.652,21.6639986 29.7359992,21.4120011 29.904,21.196 C30.096001,21.003999 30.3419985,20.908 30.642,20.908 C30.9420015,20.908 31.187999,21.003999 31.38,21.196 L42.792,32.752 C42.984001,32.944001 43.08,33.1719987 43.08,33.436 C43.08,33.7480016 42.9720011,34.0119989 42.756,34.228 L31.38,45.676 C31.187999,45.8920011 30.9480014,46 30.66,46 Z" id="&gt;" fill="#F5283C"></path>
                </g>
            </g>
        </g>
    </g>
</svg>