<?xml version="1.0" encoding="UTF-8"?>
<svg width="43px" height="44px" viewBox="0 0 43 44" version="1.1" xmlns="http://www.w3.org/2000/svg" xmlns:xlink="http://www.w3.org/1999/xlink">
    <!-- Generator: Sketch 43.1 (39012) - http://www.bohemiancoding.com/sketch -->
    <title>CenterForGraduateStudiesLogo</title>
    <desc>Created with Sketch.</desc>
    <defs>
        <polygon id="path-1" points="21.4999232 43.2280702 0 43.2280702 0 0.00385964912 42.9998464 0.00385964912 42.9998464 43.2280702 21.4999232 43.2280702"></polygon>
    </defs>
    <g id="Symbols" stroke="none" stroke-width="1" fill="none" fill-rule="evenodd">
        <g id="Academics-Flyout-V2" transform="translate(-710.000000, -75.000000)">
            <g id="Academics-Flyout" transform="translate(-1.000000, 0.000000)">
                <g id="AcademicsFlyout" transform="translate(351.000000, 34.000000)">
                    <g id="CenterForGraduateStudiesLogo" transform="translate(360.000000, 41.000000)">
                        <path d="M23.8034179,27.7859228 L19.9641321,27.7859228 L19.9641321,23.1543439 L23.8034179,23.1543439 C25.0703821,23.1543439 26.1069893,24.1964491 26.1069893,25.4701333 C26.1069893,26.7438175 25.0703821,27.7859228 23.8034179,27.7859228 L23.8034179,27.7859228 Z M19.9641321,16.9789053 L23.4194893,16.9789053 C24.4791321,16.9789053 25.3391321,17.8434667 25.3391321,18.9087298 C25.3391321,19.973993 24.4791321,20.8385544 23.4194893,20.8385544 L19.9641321,20.8385544 L19.9641321,16.9789053 Z M26.5446679,21.7571509 C27.2280607,21.0083789 27.6427036,20.0048702 27.6427036,18.9087298 C27.6427036,16.5620632 25.753775,14.6631158 23.4194893,14.6631158 L16.1248464,14.6631158 L16.1248464,15.4350456 C16.1248464,16.2841684 16.8159179,16.9789053 17.6605607,16.9789053 L17.6605607,27.7859228 C16.8159179,27.7859228 16.1248464,28.4806596 16.1248464,29.3297825 L16.1248464,30.1017123 L23.8034179,30.1017123 C26.345025,30.1017123 28.4105607,28.0252211 28.4105607,25.4701333 C28.4105607,23.9494316 27.6734179,22.5908351 26.5446679,21.7571509 L26.5446679,21.7571509 Z" id="Fill-1" fill="#EF0030"></path>
                        <path d="M32.0421411,30.0934526 C29.3461946,33.8126105 24.7636232,36.0635579 19.7134268,35.3842596 C13.8661946,34.599207 9.20069464,29.8070667 8.53342679,23.9141544 C7.63656964,15.9956982 13.8001589,9.2598386 21.5002304,9.2598386 C25.8248018,9.2598386 29.6571768,11.3903649 32.0321589,14.6579439 C32.5028554,15.3048211 33.3674625,15.5132421 34.0577661,15.1133825 L34.7987482,14.6849614 C32.0951232,9.97464561 26.9996232,6.82517193 21.1731232,6.94790877 C13.2258018,7.11310175 6.58230179,13.5679789 6.1645875,21.5481895 C5.69849821,30.4531719 12.7435875,37.8212421 21.5002304,37.8212421 C27.1900518,37.8212421 32.1458018,34.7026456 34.7987482,30.0795579 L34.0470161,29.6449614 C33.3636232,29.2489614 32.5066946,29.4527509 32.0421411,30.0934526" id="Fill-3" fill="#EF0030"></path>
                        <g id="Group-7" transform="translate(0.000000, 0.768379)">
                            <mask id="mask-2" fill="white">
                                <use xlink:href="#path-1"></use>
                            </mask>
                            <g id="Clip-6"></g>
                            <path d="M42.9998464,21.6140351 C42.9998464,33.5480702 33.3709179,43.2280702 21.4998464,43.2280702 C9.15270357,43.2280702 -0.760332143,32.7684211 0.0459178571,20.1859649 C0.729310714,9.47929825 9.36770357,0.771929825 20.0178821,0.0540350877 C28.5718107,-0.524912281 36.1352036,3.92912281 40.0896679,10.7607018 L39.3755607,11.1852632 C38.6768107,11.5866667 37.7860964,11.3859649 37.3330607,10.7221053 C33.5321679,5.15649123 26.9209179,1.69052632 19.572525,2.40842105 C10.3121679,3.31929825 2.93306071,11.0154386 2.34181071,20.3557895 C1.63538214,31.5642105 10.5041321,40.9122807 21.4998464,40.9122807 C31.3130607,40.9122807 39.4216321,33.4863158 40.5503821,23.9298246 L36.0968107,23.9298246 C35.2444893,23.9298246 34.5534179,23.2350877 34.5534179,22.3782456 L34.5534179,21.6140351 L42.9998464,21.6140351 Z" id="Fill-5" fill="#EF0030" mask="url(#mask-2)"></path>
                        </g>
                    </g>
                </g>
            </g>
        </g>
    </g>
</svg>