<?xml version="1.0" encoding="UTF-8"?>
<svg width="45px" height="45px" viewBox="0 0 45 45" version="1.1" xmlns="http://www.w3.org/2000/svg" xmlns:xlink="http://www.w3.org/1999/xlink">
    <!-- Generator: Sketch 41.2 (35397) - http://www.bohemiancoding.com/sketch -->
    <title>Fill 1</title>
    <desc>Created with Sketch.</desc>
    <defs></defs>
    <g id="Mobile" stroke="none" stroke-width="1" fill="none" fill-rule="evenodd">
        <g id="Main-Menu-Academics-Mobile" transform="translate(-60.000000, -929.000000)" fill="#EF432C">
            <g id="Admissions-&amp;-Aid-Expanded" transform="translate(0.000000, 162.000000)">
                <g id="Main-Nav">
                    <path d="M100.394748,808.656976 C99.6528434,808.656976 99.0519004,808.033776 99.0519004,807.239938 C99.0519004,806.460937 99.6528434,805.830318 100.387329,805.830318 L100.394748,805.830318 C101.136653,805.830318 101.730177,806.460937 101.730177,807.247357 C101.730177,808.033776 101.136653,808.664395 100.394748,808.656976 L100.394748,808.656976 Z M100.394748,805.570651 L100.387329,805.570651 C99.4747862,805.570651 98.7328812,806.312556 98.7328812,807.239938 C98.7328812,808.182157 99.4747862,808.916643 100.387329,808.916643 C101.307292,808.916643 102.034358,808.182157 102.034358,807.239938 C102.034358,806.312556 101.307292,805.570651 100.394748,805.570651 L100.394748,805.570651 Z M100.290882,807.180585 L100.075729,807.180585 L100.075729,806.549966 C100.127663,806.542547 100.194434,806.535128 100.290882,806.535128 C100.624739,806.535128 100.743444,806.698347 100.743444,806.861566 C100.743444,807.091557 100.53571,807.180585 100.290882,807.180585 L100.290882,807.180585 Z M100.69151,807.29929 L100.69151,807.284452 C100.891825,807.225099 101.055044,807.076718 101.055044,806.83189 C101.055044,806.653833 100.995691,806.527709 100.884406,806.446099 C100.77312,806.36449 100.587644,806.305137 100.30572,806.305137 C100.083148,806.305137 99.9347673,806.327394 99.7789673,806.349652 L99.7789673,808.211833 L100.075729,808.211833 L100.075729,807.410576 L100.283463,807.410576 C100.520872,807.410576 100.639577,807.499604 100.684091,807.737014 C100.721187,807.981843 100.765701,808.152481 100.810215,808.211833 L101.121815,808.211833 C101.092139,808.152481 101.047625,808.041195 101.003111,807.751852 C100.966015,807.477347 100.85473,807.328966 100.69151,807.29929 L100.69151,807.29929 Z M96.7421028,796.381911 L96.7421028,787.89798 C96.7421028,786.421094 96.6872019,784.4501 94.2225935,784.4501 C91.9246664,784.4501 90.6654063,786.530402 90.6654063,789.074641 L90.6654063,796.381911 L89.0233233,796.381911 L89.0233233,788.117584 C89.0233233,786.421094 88.8596096,784.4501 86.5052978,784.4501 C85.4760282,784.4501 84.5758502,784.920962 83.9383065,785.761293 L83.2977952,784.605405 C83.9516608,783.550417 85.0749049,782.917324 86.6432921,782.917324 C88.586094,782.917324 90.1450836,783.847673 90.4200831,785.790475 L90.4739949,785.790475 C91.1585259,784.012871 92.4177859,782.917324 94.5796971,782.917324 C98.3836913,782.917324 98.3836913,786.119881 98.3836913,787.706074 L98.3836913,796.381911 L96.7421028,796.381911 Z M80.9573322,781.062067 C80.360346,781.062067 79.8761293,780.57884 79.8761293,779.980864 C79.8761293,779.383878 80.360346,778.899661 80.9573322,778.899661 C81.5558022,778.899661 82.0400189,779.383878 82.0400189,779.980864 C82.0400189,780.57884 81.5558022,781.062067 80.9573322,781.062067 L80.9573322,781.062067 Z M80.1090875,796.380427 L81.7511706,796.380427 L81.7511706,783.241289 L80.1090875,783.241289 L80.1090875,796.380427 Z M72.5560001,795.174584 C74.2791981,795.174584 75.5943483,794.24473 76.1675936,793.039381 L77.8383636,793.450397 C76.8798224,795.612308 74.9642237,796.707854 72.5560001,796.707854 C69.2713394,796.707854 66.6717043,793.944011 66.6163087,789.811105 C66.6717043,785.677211 69.1620321,782.912873 72.9388231,782.912873 C74.5814007,782.912873 76.825416,783.570201 78.0015827,786.17033 L76.3327911,786.498747 C75.6764525,785.048075 74.2791981,784.446638 72.720703,784.446638 C70.4756985,784.446638 68.259381,786.198028 68.259381,789.811105 C68.259381,793.423688 70.4756985,795.174584 72.5560001,795.174584 L72.5560001,795.174584 Z M82.4990108,767 C70.0745752,767 60,777.072597 60,789.5 C60,801.923941 70.0745752,811.998516 82.4990108,811.998516 C94.9254248,811.998516 105,801.923941 105,789.5 C105,777.072597 94.9254248,767 82.4990108,767 L82.4990108,767 Z" id="Fill-1"></path>
                </g>
            </g>
        </g>
    </g>
</svg>
