<?xml version="1.0" encoding="UTF-8"?>
<svg width="44px" height="44px" viewBox="0 0 44 44" version="1.1" xmlns="http://www.w3.org/2000/svg" xmlns:xlink="http://www.w3.org/1999/xlink">
    <!-- Generator: Sketch 42 (36781) - http://www.bohemiancoding.com/sketch -->
    <title>instagram</title>
    <desc>Created with Sketch.</desc>
    <defs>
        <ellipse id="path-1" cx="22" cy="22" rx="22" ry="22"></ellipse>
        <mask id="mask-2" maskContentUnits="userSpaceOnUse" maskUnits="objectBoundingBox" x="0" y="0" width="44" height="44" fill="white">
            <use xlink:href="#path-1"></use>
        </mask>
    </defs>
    <g id="Symbols" stroke="none" stroke-width="1" fill="none" fill-rule="evenodd">
        <g id="//-FOOTER" transform="translate(-1494.000000, -161.000000)">
            <g id="Footer">
                <g id="Group-2" transform="translate(1332.000000, 161.000000)">
                    <g id="instagram" transform="translate(162.000000, 0.000000)">
                        <rect id="Rectangle" x="0" y="0" width="44" height="44"></rect>
                        <use id="Oval" stroke="#C9CED1" mask="url(#mask-2)" stroke-width="4" xlink:href="#path-1"></use>
                        <path d="M27.3380134,15.4619652 C26.6753043,15.4619652 26.1380316,15.9992379 26.1380316,16.6619866 C26.1380316,17.3247354 26.6753043,17.8619684 27.3380134,17.8619684 C28.0007621,17.8619684 28.5379951,17.3247354 28.5379951,16.6619866 C28.5379951,15.9992379 28.0007621,15.4619652 27.3380134,15.4619652 M21.9999802,25.3333333 C20.1590422,25.3333333 18.6666667,23.8409181 18.6666667,22.0000198 C18.6666667,20.1590422 20.1590422,18.6666667 21.9999802,18.6666667 C23.8409181,18.6666667 25.3333333,20.1590422 25.3333333,22.0000198 C25.3333333,23.8409181 23.8409181,25.3333333 21.9999802,25.3333333 M21.9999802,16.8648681 C19.1639267,16.8648681 16.8648681,19.1639267 16.8648681,22.0000198 C16.8648681,24.8360733 19.1639267,27.1351319 21.9999802,27.1351319 C24.8360733,27.1351319 27.1351319,24.8360733 27.1351319,22.0000198 C27.1351319,19.1639267 24.8360733,16.8648681 21.9999802,16.8648681 M21.9999802,12 C19.2841631,12 18.9436191,12.0115116 17.8770128,12.0601777 C16.8125897,12.1087248 16.0856937,12.277786 15.44962,12.5250069 C14.7920316,12.780524 14.2343557,13.1224573 13.6783866,13.6783866 C13.1224573,14.2343557 12.780524,14.7920316 12.5250069,15.44962 C12.277786,16.0856937 12.1087248,16.8126294 12.0601777,17.8770128 C12.0115116,18.9436191 12,19.2841631 12,22.0000198 C12,24.7158766 12.0115116,25.0563809 12.0601777,26.1229872 C12.1087248,27.1873706 12.277786,27.9143063 12.5250069,28.55038 C12.780524,29.2079684 13.1224573,29.7656443 13.6783866,30.3216134 C14.2343557,30.8775427 14.7920316,31.2194363 15.44962,31.4750328 C16.0856937,31.722214 16.8125897,31.8912752 17.8770128,31.939862 C18.9436191,31.9884884 19.2841631,32 21.9999802,32 C24.7158369,32 25.0563809,31.9884884 26.1229872,31.939862 C27.1873706,31.8912752 27.9143063,31.722214 28.55038,31.4750328 C29.2079684,31.2194363 29.7656443,30.8775427 30.3215737,30.3216134 C30.8775427,29.7656443 31.2194363,29.2080081 31.4750328,28.55038 C31.722214,27.9143063 31.8912752,27.1873706 31.9398223,26.1229872 C31.9884884,25.0563809 32,24.7158766 32,22.0000198 C32,19.2841631 31.9884884,18.9436191 31.9398223,17.8770128 C31.8912752,16.8126294 31.722214,16.0856937 31.4750328,15.44962 C31.2194363,14.7920316 30.8775427,14.2343557 30.3215737,13.6783866 C29.7656443,13.1224573 29.2079684,12.780524 28.55038,12.5250069 C27.9143063,12.277786 27.1873706,12.1087248 26.1229872,12.0601777 C25.0563809,12.0115116 24.7158369,12 21.9999802,12 M21.9999802,13.8017986 C24.6701082,13.8017986 24.9863985,13.8120002 26.0408184,13.8601106 C27.0158483,13.9046088 27.5453407,14.0674776 27.8977138,14.2044256 C28.3644483,14.385832 28.697609,14.6025671 29.0475209,14.9524791 C29.3974726,15.302391 29.614168,15.635512 29.7955744,16.1022862 C29.9324827,16.4546593 30.0954309,16.9841914 30.1398894,17.9591419 C30.1879998,19.0136015 30.1982014,19.3298918 30.1982014,22.0000198 C30.1982014,24.6701082 30.1879998,24.9863985 30.1398894,26.0408184 C30.0954309,27.0158483 29.9324827,27.5453407 29.7955744,27.8977138 C29.614168,28.364488 29.3974726,28.697609 29.0475209,29.0475606 C28.697609,29.3974726 28.3644483,29.614168 27.8977138,29.7955744 C27.5453407,29.9324827 27.0158483,30.0954309 26.0408184,30.1398894 C24.9865573,30.1879998 24.6703067,30.1982014 21.9999802,30.1982014 C19.3296933,30.1982014 19.0134824,30.1879998 17.9591419,30.1398894 C16.9841914,30.0954309 16.4546593,29.9324827 16.1022862,29.7955744 C15.635512,29.614168 15.302391,29.3974726 14.9524791,29.0475606 C14.6025274,28.697609 14.385832,28.364488 14.2044256,27.8977138 C14.0674776,27.5453407 13.9045691,27.0158483 13.8600709,26.0408581 C13.8119605,24.9863985 13.8017986,24.6701082 13.8017986,22.0000198 C13.8017986,19.3298918 13.8119605,19.0136015 13.8600709,17.9591419 C13.9045691,16.9841914 14.0674776,16.4546593 14.2044256,16.1022862 C14.385832,15.635512 14.6025274,15.302391 14.9524394,14.9524791 C15.302391,14.6025671 15.635512,14.385832 16.1022862,14.2044256 C16.4546593,14.0674776 16.9841914,13.9046088 17.9591419,13.8601106 C19.0136015,13.8120002 19.3298918,13.8017986 21.9999802,13.8017986" id="Fill-1" fill="#C9CED1"></path>
                    </g>
                </g>
            </g>
        </g>
    </g>
</svg>
