<svg xmlns="http://www.w3.org/2000/svg" width="24" height="16" viewBox="0 0 24 16">
    <path fill="#EF0030" fill-rule="evenodd" d="M4 12h16V2H4v10zm16 2c1.1 0 2-.9 2-2V2c0-1.1-.9-2-2-2H4C2.9 0 2 .9 2 2v10c0 1.1.9 2 2 2H0v2h24v-2h-4z"/>
</svg>
