<?xml version="1.0" encoding="UTF-8"?>
<svg width="100%" height="100%" viewBox="0 0 80 80" version="1.1" xmlns="http://www.w3.org/2000/svg" xmlns:xlink="http://www.w3.org/1999/xlink">
    <!-- Generator: Sketch 41.2 (35397) - http://www.bohemiancoding.com/sketch -->
    <title>Group 4</title>
    <desc>Created with Sketch.</desc>
    <defs></defs>
    <g id="Page-1" stroke="none" stroke-width="1" fill="none" fill-rule="evenodd">
        <g id="Graduate-Program" transform="translate(-1440.000000, -281.000000)">
            <g id="Group-4" transform="translate(1440.000000, 281.000000)">
                <path d="M64.7058612,16.1253264 C64.9665976,16.3846223 65.3857927,16.3831818 65.6436481,16.1253264 L71.8437022,9.93391555 C72.1044386,9.67461961 72.1044386,9.25398397 71.8451427,8.99468803 L71.8437022,8.9932475 C71.5844062,8.73395156 71.1637706,8.73395156 70.9044747,8.9932475 L65.6450887,14.2526335 C65.3857927,14.5119294 64.9651571,14.5119294 64.7058612,14.2526335 L63.0751778,12.6233907 C62.8158819,12.3640947 62.3952462,12.3640947 62.1359503,12.6233907 C61.8766544,12.8841271 61.8766544,13.3047628 62.1373908,13.5640587 L64.7058612,16.1253264 Z M66.9905465,3.95570361 C71.7342217,3.95570361 75.5934096,7.81489151 75.5934096,12.5585667 C75.5934096,17.3022418 71.7342217,21.1628703 66.9905465,21.1628703 C62.2468713,21.1628703 58.3876834,17.3022418 58.3876834,12.5585667 C58.3876834,7.81489151 62.2468713,3.95570361 66.9905465,3.95570361 L66.9905465,3.95570361 Z M66.9905465,22.2375079 C72.3277213,22.2375079 76.6694877,17.8957414 76.6694877,12.5585667 C76.6694877,7.22283245 72.3277213,2.88106599 66.9905465,2.88106599 C61.6533717,2.88106599 57.3116053,7.22283245 57.3116053,12.5585667 C57.3116053,17.8957414 61.6533717,22.2375079 66.9905465,22.2375079 L66.9905465,22.2375079 Z M75.4709643,21.543171 C74.978302,22.0084631 74.4553885,22.4420636 73.8906996,22.8223643 C76.5182317,27.9852345 78.0106239,33.8193932 78.0106239,39.9992797 C78.0106239,60.9590348 60.9590348,78.0091834 40.0007203,78.0091834 C19.0424057,78.0091834 1.9908166,60.9590348 1.9908166,39.9992797 C1.9908166,19.0395246 19.0424057,1.98937607 40.0007203,1.98937607 C45.9587647,1.98937607 51.599892,3.37084721 56.6259116,5.82551544 C56.994688,5.25794544 57.4138831,4.72638876 57.8705321,4.22796435 C52.4887008,1.52840551 46.4211758,0 40.0007203,0 C17.9447195,0 0,17.943279 0,39.9992797 C0,62.0552805 17.9447195,80 40.0007203,80 C62.056721,80 80,62.0552805 80,39.9992797 C80,33.3454578 78.3592329,27.0704961 75.4709643,21.543171 L75.4709643,21.543171 Z" id="Fill-1" fill="#C70E20"></path>
                <circle id="Oval-2" fill="#F5283C" cx="67" cy="12" r="7"></circle>
                <path d="M48.75,26.5 L48.75,23 L31.25,23 L31.25,26.5 L26,26.5 L26,58 L36.5,58 L36.5,54.5 L43.5,54.5 L43.5,58 L54,58 L54,26.5 L48.75,26.5 L48.75,26.5 Z M38.25,49.25 L34.75,49.25 L34.75,45.75 L38.25,45.75 L38.25,49.25 L38.25,49.25 Z M38.25,42.25 L34.75,42.25 L34.75,38.75 L38.25,38.75 L38.25,42.25 L38.25,42.25 Z M38.25,35.25 L34.75,35.25 L34.75,31.75 L38.25,31.75 L38.25,35.25 L38.25,35.25 Z M45.25,49.25 L41.75,49.25 L41.75,45.75 L45.25,45.75 L45.25,49.25 L45.25,49.25 Z M45.25,42.25 L41.75,42.25 L41.75,38.75 L45.25,38.75 L45.25,42.25 L45.25,42.25 Z M45.25,35.25 L41.75,35.25 L41.75,31.75 L45.25,31.75 L45.25,35.25 L45.25,35.25 Z" id="Shape" fill="#C70E20"></path>
            </g>
        </g>
    </g>
</svg>
