<?xml version="1.0" encoding="UTF-8"?>
<svg width="20px" height="14px" viewBox="0 0 20 14" version="1.1" xmlns="http://www.w3.org/2000/svg" xmlns:xlink="http://www.w3.org/1999/xlink">
    <!-- Generator: Sketch 41.2 (35397) - http://www.bohemiancoding.com/sketch -->
    <title>Hamburger</title>
    <desc>Created with Sketch.</desc>
    <defs></defs>
    <g id="Mobile" stroke="none" stroke-width="1" fill="none" fill-rule="evenodd">
        <g id="Degree-Program-Mobile" transform="translate(-318.000000, -727.000000)" fill="#FFFFFF">
            <g id="Page-level-nav" transform="translate(20.000000, 699.000000)">
                <path d="M298,28 L318,28 L318,30 L298,30 L298,28 Z M298,34 L318,34 L318,36 L298,36 L298,34 Z M298,40 L318,40 L318,42 L298,42 L298,40 Z" id="Hamburger"></path>
            </g>
        </g>
    </g>
</svg>