<?xml version="1.0" encoding="UTF-8"?>
<svg width="18px" height="18px" viewBox="0 0 18 18" version="1.1" xmlns="http://www.w3.org/2000/svg" xmlns:xlink="http://www.w3.org/1999/xlink">
    <!-- Generator: Sketch 41.2 (35397) - http://www.bohemiancoding.com/sketch -->
    <title>Shape</title>
    <desc>Created with Sketch.</desc>
    <defs></defs>
    <g id="Mobile" stroke="none" stroke-width="1" fill="none" fill-rule="evenodd">
        <g id="Affiliate-Institution-Mobile" transform="translate(-184.000000, -105.000000)" fill="#FFFFFF">
            <g id="CIM-TOP-NAV">
                <g id="Mobile-nav" transform="translate(0.000000, 64.000000)">
                    <path d="M187.6,48.8 C189,51.6 191.4,53.9 194.2,55.4 L196.4,53.2 C196.7,52.9 197.1,52.8 197.4,53 C198.5,53.4 199.7,53.6 201,53.6 C201.6,53.6 202,54 202,54.6 L202,58 C202,58.6 201.6,59 201,59 C191.6,59 184,51.4 184,42 C184,41.4 184.4,41 185,41 L188.5,41 C189.1,41 189.5,41.4 189.5,42 C189.5,43.2 189.7,44.4 190.1,45.6 C190.2,45.9 190.1,46.3 189.9,46.6 L187.6,48.8 L187.6,48.8 Z" id="Shape"></path>
                </g>
            </g>
        </g>
    </g>
</svg>