<?xml version="1.0" encoding="UTF-8"?>
<svg width="19px" height="34px" viewBox="0 0 19 34" version="1.1" xmlns="http://www.w3.org/2000/svg" xmlns:xlink="http://www.w3.org/1999/xlink">
    <!-- Generator: Sketch 41.2 (35397) - http://www.bohemiancoding.com/sketch -->
    <title>&lt;</title>
    <desc>Created with Sketch.</desc>
    <defs></defs>
    <g id="Page-1" stroke="none" stroke-width="1" fill="none" fill-rule="evenodd" font-size="48" font-family="QuicksandBook-Regular, Quicksand" font-weight="300">
        <g id="Campus" transform="translate(-291.000000, -957.000000)" fill="#FFFFFF">
            <g id="//-HERO" transform="translate(252.000000, 603.000000)">
                <g id="Image">
                    <g id="&lt;" transform="translate(37.000000, 354.000000)">
                        <text>
                            <tspan x="0" y="34">&lt;</tspan>
                        </text>
                    </g>
                </g>
            </g>
        </g>
    </g>
</svg>