<?xml version="1.0" encoding="UTF-8"?>
<svg width="100%" height="100%" viewBox="0 0 80 80" version="1.1" xmlns="http://www.w3.org/2000/svg" xmlns:xlink="http://www.w3.org/1999/xlink">
    <!-- Generator: Sketch 41.2 (35397) - http://www.bohemiancoding.com/sketch -->
    <title>Fill 1</title>
    <desc>Created with Sketch.</desc>
    <defs></defs>
    <g id="Page-1" stroke="none" stroke-width="1" fill="none" fill-rule="evenodd">
        <g id="Campus" transform="translate(-1440.000000, -280.000000)" fill="#FFFFFF">
            <g id="//-HEADER" transform="translate(0.000000, -1.000000)">
                <path d="M1504.70586,297.125326 C1504.9666,297.384622 1505.38579,297.383182 1505.64365,297.125326 L1511.8437,290.933916 C1512.10444,290.67462 1512.10444,290.253984 1511.84514,289.994688 L1511.8437,289.993248 C1511.58441,289.733952 1511.16377,289.733952 1510.90447,289.993248 L1505.64509,295.252633 C1505.38579,295.511929 1504.96516,295.511929 1504.70586,295.252633 L1503.07518,293.623391 C1502.81588,293.364095 1502.39525,293.364095 1502.13595,293.623391 C1501.87665,293.884127 1501.87665,294.304763 1502.13739,294.564059 L1504.70586,297.125326 Z M1506.99055,284.955704 C1511.73422,284.955704 1515.59341,288.814892 1515.59341,293.558567 C1515.59341,298.302242 1511.73422,302.16287 1506.99055,302.16287 C1502.24687,302.16287 1498.38768,298.302242 1498.38768,293.558567 C1498.38768,288.814892 1502.24687,284.955704 1506.99055,284.955704 L1506.99055,284.955704 Z M1506.99055,303.237508 C1512.32772,303.237508 1516.66949,298.895741 1516.66949,293.558567 C1516.66949,288.222832 1512.32772,283.881066 1506.99055,283.881066 C1501.65337,283.881066 1497.31161,288.222832 1497.31161,293.558567 C1497.31161,298.895741 1501.65337,303.237508 1506.99055,303.237508 L1506.99055,303.237508 Z M1515.47096,302.543171 C1514.9783,303.008463 1514.45539,303.442064 1513.8907,303.822364 C1516.51823,308.985235 1518.01062,314.819393 1518.01062,320.99928 C1518.01062,341.959035 1500.95903,359.009183 1480.00072,359.009183 C1459.04241,359.009183 1441.99082,341.959035 1441.99082,320.99928 C1441.99082,300.039525 1459.04241,282.989376 1480.00072,282.989376 C1485.95876,282.989376 1491.59989,284.370847 1496.62591,286.825515 C1496.99469,286.257945 1497.41388,285.726389 1497.87053,285.227964 C1492.4887,282.528406 1486.42118,281 1480.00072,281 C1457.94472,281 1440,298.943279 1440,320.99928 C1440,343.05528 1457.94472,361 1480.00072,361 C1502.05672,361 1520,343.05528 1520,320.99928 C1520,314.345458 1518.35923,308.070496 1515.47096,302.543171 L1515.47096,302.543171 Z M1484.52976,330.812191 L1488.30251,330.812191 L1488.30251,327.037994 L1484.52976,327.037994 L1484.52976,330.812191 Z M1483.77492,332.321869 L1489.05879,332.321869 C1489.47511,332.321869 1489.81219,331.983344 1489.81219,331.56703 L1489.81219,326.283155 C1489.81219,325.866841 1489.47511,325.528315 1489.05879,325.528315 L1483.77492,325.528315 C1483.35716,325.528315 1483.01864,325.866841 1483.01864,326.283155 L1483.01864,331.56703 C1483.01864,331.983344 1483.35716,332.321869 1483.77492,332.321869 L1483.77492,332.321869 Z M1471.69749,330.812191 L1475.47168,330.812191 L1475.47168,327.037994 L1471.69749,327.037994 L1471.69749,330.812191 Z M1470.94409,332.321869 L1476.22652,332.321869 C1476.64428,332.321869 1476.98136,331.983344 1476.98136,331.56703 L1476.98136,326.283155 C1476.98136,325.866841 1476.64428,325.528315 1476.22652,325.528315 L1470.94409,325.528315 C1470.52489,325.528315 1470.18781,325.866841 1470.18781,326.283155 L1470.18781,331.56703 C1470.18781,331.983344 1470.52489,332.321869 1470.94409,332.321869 L1470.94409,332.321869 Z M1471.69749,321.75556 L1475.47168,321.75556 L1475.47168,317.981363 L1471.69749,317.981363 L1471.69749,321.75556 Z M1470.94409,323.263798 L1476.22652,323.263798 C1476.64428,323.263798 1476.98136,322.926713 1476.98136,322.508958 L1476.98136,317.225083 C1476.98136,316.808769 1476.64428,316.470244 1476.22652,316.470244 L1470.94409,316.470244 C1470.52489,316.470244 1470.18781,316.808769 1470.18781,317.225083 L1470.18781,322.508958 C1470.18781,322.926713 1470.52489,323.263798 1470.94409,323.263798 L1470.94409,323.263798 Z M1480.75556,334.584946 L1492.07671,334.584946 L1492.07671,314.205726 L1480.75556,314.205726 L1480.75556,334.584946 Z M1467.92473,334.584946 L1479.24588,334.584946 L1479.24588,314.205726 L1467.92473,314.205726 L1467.92473,334.584946 Z M1466.41505,311.473035 C1466.41505,311.16188 1466.60953,310.878095 1466.92644,310.75709 L1480.00072,305.213919 L1493.09949,310.767174 C1493.39192,310.878095 1493.58639,311.16188 1493.58639,311.473035 L1493.58639,312.697488 L1466.41505,312.697488 L1466.41505,311.473035 Z M1495.85235,334.584946 L1493.58639,334.584946 L1493.58639,314.205726 L1494.34267,314.205726 C1494.75898,314.205726 1495.09607,313.868641 1495.09607,313.450887 L1495.09607,311.473035 C1495.09607,310.53957 1494.51121,309.689655 1493.66418,309.366976 L1480.29603,303.698478 C1480.10732,303.619249 1479.89412,303.619249 1479.70685,303.698478 L1466.36319,309.356892 C1465.49023,309.688215 1464.90393,310.53957 1464.90393,311.473035 L1464.90393,313.450887 C1464.90393,313.868641 1465.24102,314.205726 1465.66021,314.205726 L1466.41505,314.205726 L1466.41505,334.584946 L1464.15054,334.584946 C1463.73278,334.584946 1463.39426,334.923472 1463.39426,335.341226 L1463.39426,337.605744 C1463.39426,338.022058 1463.73278,338.360583 1464.15054,338.360583 L1495.85235,338.360583 C1496.26866,338.360583 1496.60574,338.022058 1496.60574,337.605744 L1496.60574,335.341226 C1496.60574,334.923472 1496.26866,334.584946 1495.85235,334.584946 L1495.85235,334.584946 Z M1484.52976,321.75556 L1488.30251,321.75556 L1488.30251,317.981363 L1484.52976,317.981363 L1484.52976,321.75556 Z M1483.77492,323.263798 L1489.05879,323.263798 C1489.47511,323.263798 1489.81219,322.926713 1489.81219,322.508958 L1489.81219,317.225083 C1489.81219,316.808769 1489.47511,316.470244 1489.05879,316.470244 L1483.77492,316.470244 C1483.35716,316.470244 1483.01864,316.808769 1483.01864,317.225083 L1483.01864,322.508958 C1483.01864,322.926713 1483.35716,323.263798 1483.77492,323.263798 L1483.77492,323.263798 Z" id="Fill-1"></path>
            </g>
        </g>
    </g>
</svg>
