<?xml version="1.0" encoding="UTF-8"?>
<svg width="100%" height="100%" viewBox="0 0 54 54" version="1.1" xmlns="http://www.w3.org/2000/svg" xmlns:xlink="http://www.w3.org/1999/xlink">
    <!-- Generator: Sketch 41.2 (35397) - http://www.bohemiancoding.com/sketch -->
    <title>Fill 1</title>
    <desc>Created with Sketch.</desc>
    <defs></defs>
    <g id="Symbols" stroke="none" stroke-width="1" fill="none" fill-rule="evenodd">
        <g id="CIM-Nav" transform="translate(-255.000000, -32.000000)" fill="#E83928">
            <g id="Fill-1">
                <path d="M303.473698,81.9883713 C302.583412,81.9883713 301.86228,81.2405311 301.86228,80.2879251 C301.86228,79.3531248 302.583412,78.5963817 303.464795,78.5963817 L303.473698,78.5963817 C304.363984,78.5963817 305.076213,79.3531248 305.076213,80.2968279 C305.076213,81.2405311 304.363984,81.9972742 303.473698,81.9883713 L303.473698,81.9883713 Z M303.473698,78.2847816 L303.464795,78.2847816 C302.369743,78.2847816 301.479457,79.1750676 301.479457,80.2879251 C301.479457,81.4185883 302.369743,82.2999714 303.464795,82.2999714 C304.56875,82.2999714 305.44123,81.4185883 305.44123,80.2879251 C305.44123,79.1750676 304.56875,78.2847816 303.473698,78.2847816 L303.473698,78.2847816 Z M303.349058,80.2167022 L303.090875,80.2167022 L303.090875,79.4599591 C303.153195,79.4510563 303.233321,79.4421534 303.349058,79.4421534 C303.749687,79.4421534 303.892133,79.6380163 303.892133,79.8338792 C303.892133,80.1098679 303.642852,80.2167022 303.349058,80.2167022 L303.349058,80.2167022 Z M303.829812,80.359148 L303.829812,80.3413422 C304.07019,80.2701194 304.266053,80.0920622 304.266053,79.7982678 C304.266053,79.5845992 304.19483,79.4332505 304.061287,79.3353191 C303.927744,79.2373876 303.705172,79.1661647 303.366864,79.1661647 C303.099778,79.1661647 302.921721,79.1928733 302.734761,79.2195819 L302.734761,81.4541997 L303.090875,81.4541997 L303.090875,80.4926909 L303.340155,80.4926909 C303.625047,80.4926909 303.767492,80.5995252 303.82091,80.8844167 C303.865424,81.1782111 303.918841,81.3829769 303.972258,81.4541997 L304.346178,81.4541997 C304.310567,81.3829769 304.25715,81.249434 304.203733,80.9022224 C304.159218,80.5728166 304.025675,80.3947594 303.829812,80.359148 L303.829812,80.359148 Z M299.090523,67.2582928 L299.090523,57.0775758 C299.090523,55.3053131 299.024642,52.94012 296.067112,52.94012 C293.3096,52.94012 291.798488,55.4364819 291.798488,58.4895694 L291.798488,67.2582928 L289.827988,67.2582928 L289.827988,57.3411004 C289.827988,55.3053131 289.631532,52.94012 286.806357,52.94012 C285.571234,52.94012 284.49102,53.5051549 283.725968,54.5135521 L282.957354,53.1264866 C283.741993,51.8604999 285.089886,51.1007892 286.97195,51.1007892 C289.303313,51.1007892 291.1741,52.2172078 291.5041,54.54857 L291.568794,54.54857 C292.390231,52.4154448 293.901343,51.1007892 296.495636,51.1007892 C301.06043,51.1007892 301.06043,54.943857 301.06043,56.8472885 L301.06043,67.2582928 L299.090523,67.2582928 Z M280.148799,48.8744807 C279.432415,48.8744807 278.851355,48.2946077 278.851355,47.5770372 C278.851355,46.8606538 279.432415,46.2795938 280.148799,46.2795938 C280.866963,46.2795938 281.448023,46.8606538 281.448023,47.5770372 C281.448023,48.2946077 280.866963,48.8744807 280.148799,48.8744807 L280.148799,48.8744807 Z M279.130905,67.2565123 L281.101405,67.2565123 L281.101405,51.4895474 L279.130905,51.4895474 L279.130905,67.2565123 Z M270.0672,65.8095008 C272.135038,65.8095008 273.713218,64.6936757 274.401112,63.2472577 L276.406036,63.7404761 C275.255787,66.3347695 272.957068,67.6494252 270.0672,67.6494252 C266.125607,67.6494252 263.006045,64.3328131 262.93957,59.3733266 C263.006045,54.4126531 265.994438,51.0954475 270.526588,51.0954475 C272.497681,51.0954475 275.190499,51.8842408 276.601899,55.0043965 L274.599349,55.3984964 C273.811743,53.6576905 272.135038,52.9359654 270.264844,52.9359654 C267.570838,52.9359654 264.911257,55.0376338 264.911257,59.3733266 C264.911257,63.7084258 267.570838,65.8095008 270.0672,65.8095008 L270.0672,65.8095008 Z M281.998813,32 C267.08949,32 255,44.0871161 255,59 C255,73.9087292 267.08949,85.9982194 281.998813,85.9982194 C296.91051,85.9982194 309,73.9087292 309,59 C309,44.0871161 296.91051,32 281.998813,32 L281.998813,32 Z"></path>
            </g>
        </g>
    </g>
</svg>
