<?xml version="1.0" encoding="UTF-8"?>
<svg width="44px" height="44px" viewBox="0 0 44 44" version="1.1" xmlns="http://www.w3.org/2000/svg" xmlns:xlink="http://www.w3.org/1999/xlink">
    <!-- Generator: Sketch 42 (36781) - http://www.bohemiancoding.com/sketch -->
    <title>facebook</title>
    <desc>Created with Sketch.</desc>
    <defs>
        <ellipse id="path-1" cx="22" cy="22" rx="22" ry="22"></ellipse>
        <mask id="mask-2" maskContentUnits="userSpaceOnUse" maskUnits="objectBoundingBox" x="0" y="0" width="44" height="44" fill="white">
            <use xlink:href="#path-1"></use>
        </mask>
    </defs>
    <g id="Page-1" stroke="none" stroke-width="1" fill="none" fill-rule="evenodd">
        <g id="News-Landing" transform="translate(-1332.000000, -604.000000)">
            <g id="//-RIGHT-NAV" transform="translate(1332.000000, 504.000000)">
                <g id="Social">
                    <g id="Social-Links" transform="translate(0.000000, 100.000000)">
                        <g id="facebook">
                            <rect id="Rectangle" x="0" y="0" width="44" height="44"></rect>
                            <use id="Oval" stroke="#0862A6" mask="url(#mask-2)" stroke-width="4" xlink:href="#path-1"></use>
                            <path d="M24.3147057,34 L19.4372418,34 L19.4372418,22.4985483 L17,22.4985483 L17,18.535534 L19.4372418,18.535534 L19.4372418,16.1562737 C19.4372418,12.9234411 20.8127074,11 24.7230238,11 L27.9776468,11 L27.9776468,14.964466 L25.9435074,14.964466 C24.4212558,14.964466 24.3206665,15.5182719 24.3206665,16.5518493 L24.3139606,18.535534 L28,18.535534 L27.5685836,22.4985483 L24.3139606,22.4985483 L24.3139606,34 L24.3147057,34 Z" id="Shape" fill="#0862A6"></path>
                        </g>
                    </g>
                </g>
            </g>
        </g>
    </g>
</svg>
